C:\Users\Giuseppe\git\dlfocl\DLFocl\src\it\uniba\di\lacam\ml\conceptlearners\dlfocl\dlfocl2\DLFocl2.java
C:\Users\Giuseppe\git\dlfocl\DLFocl\src\it\uniba\di\lacam\ml\conceptlearners\InductiveClassificationModel.java
C:\Users\Giuseppe\git\dlfocl\DLFocl\src\it\uniba\di\lacam\ml\conceptlearners\tdt\TDTLearner.java
C:\Users\Giuseppe\git\dlfocl\DLFocl\src\it\uniba\di\lacam\ml\conceptlearners\dlfocl\dlfocl4\DLFocl4Model.java
C:\Users\Giuseppe\git\dlfocl\DLFocl\src\it\uniba\di\lacam\ml\conceptlearners\dlfocl\utils\ProbabilisticTabuList.java
C:\Users\Giuseppe\git\dlfocl\DLFocl\src\it\uniba\di\lacam\ml\conceptlearners\dlfocl\utils\AbstractTabuList.java
C:\Users\Giuseppe\git\dlfocl\DLFocl\src\it\uniba\di\lacam\ml\conceptlearners\dlfoil\DLFoilTest.java
C:\Users\Giuseppe\git\dlfocl\DLFocl\src\it\uniba\di\lacam\ml\conceptlearners\coverfunctions\CoverFunction.java
C:\Users\Giuseppe\git\dlfocl\DLFocl\src\it\uniba\di\lacam\ml\conceptlearners\scores\Heuristics.java
C:\Users\Giuseppe\git\dlfocl\DLFocl\src\it\uniba\di\lacam\ml\conceptlearners\dlfocl\dlfocl3\DLFocl3.java
C:\Users\Giuseppe\git\dlfocl\DLFocl\src\it\uniba\di\lacam\ml\conceptlearners\tdt\TDTClassificationModel.java
C:\Users\Giuseppe\git\dlfocl\DLFocl\src\it\uniba\di\lacam\ml\conceptlearners\dlfocl\dlfocl6\DLFocl6.java
C:\Users\Giuseppe\git\dlfocl\DLFocl\src\it\uniba\di\lacam\ml\conceptlearners\dlfoil\CEClassificationModel2.java
C:\Users\Giuseppe\git\dlfocl\DLFocl\src\it\uniba\di\lacam\ml\conceptlearners\dlfocl\utils\LPGenerator.java
C:\Users\Giuseppe\git\dlfocl\DLFocl\src\it\uniba\di\lacam\ml\conceptlearners\CacheTest.java
C:\Users\Giuseppe\git\dlfocl\DLFocl\src\it\uniba\di\lacam\ml\conceptlearners\dlfoil\CEClassificationModel.java
C:\Users\Giuseppe\git\dlfocl\DLFocl\src\it\uniba\di\lacam\ml\conceptlearners\Evaluation.java
C:\Users\Giuseppe\git\dlfocl\DLFocl\src\it\uniba\di\lacam\ml\conceptlearners\dlfocl\utils\TabuList.java
C:\Users\Giuseppe\git\dlfocl\DLFocl\src\it\uniba\di\lacam\ml\conceptlearners\refops\RefinementOperator2.java
C:\Users\Giuseppe\git\dlfocl\DLFocl\src\it\uniba\di\lacam\ml\conceptlearners\dlfocl\dlfocl2\DLFocl2Model.java
C:\Users\Giuseppe\git\dlfocl\DLFocl\src\it\uniba\di\lacam\ml\conceptlearners\dlfocl\dlfocl1\DLFocl1Model.java
C:\Users\Giuseppe\git\dlfocl\DLFocl\src\it\uniba\di\lacam\ml\conceptlearners\dlfoil\DLFoil2.java
C:\Users\Giuseppe\git\dlfocl\DLFocl\src\it\uniba\di\lacam\ml\conceptlearners\RandomGenerator.java
C:\Users\Giuseppe\git\dlfocl\DLFocl\src\it\uniba\di\lacam\ml\conceptlearners\tdt\TDT.java
C:\Users\Giuseppe\git\dlfocl\DLFocl\src\it\uniba\di\lacam\ml\conceptlearners\dlfocl\dlfocl7\DLFocl7Model.java
C:\Users\Giuseppe\git\dlfocl\DLFocl\src\it\uniba\di\lacam\ml\conceptlearners\dlfocl\dlfocl7\DLFocl7.java
C:\Users\Giuseppe\git\dlfocl\DLFocl\src\it\uniba\di\lacam\ml\conceptlearners\dlfocl\utils\TimeTabuList.java
C:\Users\Giuseppe\git\dlfocl\DLFocl\src\it\uniba\di\lacam\ml\conceptlearners\dlfoil\DLFoil.java
C:\Users\Giuseppe\git\dlfocl\DLFocl\src\it\uniba\di\lacam\ml\conceptlearners\LProblem.java
C:\Users\Giuseppe\git\dlfocl\DLFocl\src\it\uniba\di\lacam\ml\conceptlearners\dlfocl\dlfocl3\DLFocl3Model.java
C:\Users\Giuseppe\git\dlfocl\DLFocl\src\it\uniba\di\lacam\ml\conceptlearners\refops\RefinementOperator.java
C:\Users\Giuseppe\git\dlfocl\DLFocl\src\it\uniba\di\lacam\ml\conceptlearners\dlfocl\dlfocl6\DLFocl6Model.java
