SLF4J: Failed to load class "org.slf4j.impl.StaticLoggerBinder".﻿
﻿SLF4J: Defaulting to no-operation (NOP) logger implementation﻿
﻿SLF4J: See http://www.slf4j.org/codes.html#StaticLoggerBinder for further details.﻿
﻿INIT KB <<<<<<<<<<<<<<<<<<<<<<<<<<<<<<<<<<<<<<<<<<<<<<<<<<<<<<<<<<<<<<<<<<<<<<<<<<<<<<<<<<<<
﻿file:////C:/Users/Giuseppe/Documents/yago.owl
﻿WARNING: An illegal reflective access operation has occurred
WARNING: Illegal reflective access by com.google.inject.internal.cglib.core.$ReflectUtils$2 (file:/C:/Users/Giuseppe/.m2/repository/com/google/inject/guice/4.0/guice-4.0.jar) to method java.lang.ClassLoader.defineClass(java.lang.String,byte[],int,int,java.security.ProtectionDomain)
WARNING: Please consider reporting this to the maintainers of com.google.inject.internal.cglib.core.$ReflectUtils$2
WARNING: Use --illegal-access=warn to enable warnings of further illegal reflective access operations
WARNING: All illegal access operations will be denied in a future release
﻿Consistency check: ﻿true

CLASSES
﻿---------------------------- 30

OBJECT Props

﻿---------------------------- 0

INDIVIDUALS

﻿---------------------------- 206﻿
﻿
CLASS DISJOINTNESS AXIOMS
﻿
﻿---------------------------- 4﻿
﻿

KB LOADED. 

﻿
﻿[DLFoil2]﻿
﻿DLFoil2
﻿Targets: [yagoGeoEntity]﻿
﻿NrandConcepts: 1﻿
﻿
--------------- creating GOLD STANDARD CLASSIFICATION ---------------
﻿
TARGET Concepts: ﻿1﻿
﻿PosExamples111﻿
﻿Counter exs:80﻿
﻿Uncertain: -65﻿
﻿Examples from :     Thing 206﻿
﻿Negated Concept: wikicat_16th-century_Christian_church_councils or wikicat_750_mm_gauge_railways or wikicat_785_mm_gauge_railways_in_Germany or wikicat_985_mm_gauge_railways or wikicat_Academies_in_Enfield or wikicat_Academies_in_Kent or wordnet_organization_108008335 or _domestic_association_football_leagues or _domestic_association_football_leagues or _ice_hockey_leagues or Nothing
﻿concept: ﻿yagoGeoEntity	﻿ ﻿  pos:111     ﻿neg:80 ﻿    und:15
﻿10-fold CROSS VALIDATION Experiment on ontology: file:////C:/Users/Giuseppe/Documents/yago.owl
﻿No of folds: 10
No of examples: 206
No of places: 210
No of examples per fold: 21
﻿

Fold #0 **************************************************************************************************
﻿#training examples ﻿185 - fold: ﻿0

﻿--------- Target Concept #﻿0﻿ 
﻿yagoGeoEntity﻿

Learning problem prepared.
﻿
 Problem	 p:﻿95﻿	 n:﻿75	 u:15﻿	
﻿threshold: 1.0﻿
﻿Subproblem ------------------------------------------﻿
﻿
Specializing ﻿⊤﻿
 ﻿95	 ﻿75	 15
﻿ ﻿ ﻿ ﻿0﻿. ﻿wikicat_1990_Goodwill_Games_venues﻿
	﻿ ﻿ ﻿ ﻿6﻿	 ﻿ ﻿ ﻿ ﻿0﻿	 ﻿ ﻿ ﻿ ﻿0﻿		 ﻿+5.398830e-02 <--- current BEST
﻿ ﻿  ﻿1﻿. ﻿wikicat_Administrative_subdivisions_of_Heilongjiang
	﻿  17﻿	 ﻿ ﻿ ﻿ ﻿0	 ﻿  ﻿ 0		 ﻿+1.648263e-01﻿ <--- current BEST﻿
﻿ ﻿ ﻿ ﻿2﻿. ﻿wikicat_Academic_libraries﻿
	﻿ ﻿ ﻿16﻿	 ﻿ ﻿ ﻿ ﻿0﻿	 ﻿ ﻿ ﻿ ﻿0﻿		 ﻿+1.547219e-01﻿
﻿   3﻿. wikicat_Academic_enclaves
	﻿ ﻿ ﻿16﻿	 ﻿ ﻿ ﻿ ﻿0﻿	 ﻿ ﻿  0﻿		 ﻿+1.547219e-01﻿
﻿ ﻿ ﻿ ﻿4﻿. ﻿wikicat_Academic_libraries﻿
	﻿ ﻿ ﻿16﻿	 ﻿ ﻿  0	    0		 ﻿+1.547219e-01
﻿ ﻿ ﻿ ﻿5﻿. ﻿wikicat_Academic_enclaves﻿
	﻿ ﻿ ﻿16﻿	 ﻿ ﻿ ﻿ ﻿0﻿	 ﻿ ﻿ ﻿ ﻿0﻿		 ﻿+1.547219e-01﻿
﻿   6. wikicat_1990s_radio_stations_in_the_United_States
	﻿   3	    0	    0		 ﻿+2.428689e-02
﻿ ﻿ ﻿ ﻿7﻿. ﻿wikicat_Academic_enclaves﻿
	﻿ ﻿ ﻿16﻿	 ﻿ ﻿ ﻿ ﻿0	 ﻿ ﻿ ﻿ 0		 ﻿+1.547219e-01
﻿ ﻿  8. wikicat_Academic_libraries
	  16	    0	    0		 +1.547219e-01
﻿ ﻿ ﻿ ﻿9﻿. ﻿wikicat_1984_Winter_Olympics_venues﻿
	﻿ ﻿ ﻿ ﻿9﻿	 ﻿ ﻿ ﻿ ﻿0﻿	 ﻿   0		 ﻿+8.410068e-02
﻿  10. wikicat_Aerospace_museums_in_Connecticut
	﻿   2	    0	    0		 ﻿+1.470938e-02
﻿ ﻿ ﻿11﻿. ﻿_Missouri﻿
	﻿ ﻿ ﻿ ﻿1﻿	 ﻿ ﻿ ﻿ ﻿0﻿	 ﻿ ﻿ ﻿ ﻿0﻿		 ﻿+5.754658e-03﻿
﻿  12. wikicat_Administrative_subdivisions_of_Heilongjiang
	  17	    0	    0		 +1.648263e-01
﻿  13. wikicat_1990_Goodwill_Games_venues
	   6	    0	    0		 ﻿+5.398830e-02
﻿  14. _Missouri
	   1	    0	    0		 ﻿+5.754658e-03
﻿  15. wikicat_1990_Goodwill_Games_venues
	   6	    0	    0		 ﻿+5.398830e-02
﻿  16. wikicat_1990_Goodwill_Games_venues
	   6	 ﻿   0	    0		 ﻿+5.398830e-02
﻿  17. wikicat_Administrative_villages_in_Indonesia
	   1	    0	    0		 +5.754658e-03
﻿  18. wikicat_400_metres_hurdles_at_the_Pan_American_Games
	   5	    0	    0		 +4.401048e-02
﻿ ﻿ 19. wikicat_400_metres_hurdles_at_the_Pan_American_Games
	   5	    0	    0		 +4.401048e-02
0.16482627342919923
************ best: 1.648263e-01	 wikicat_Administrative_subdivisions_of_Heilongjiang
﻿
Specialization, covering P:17 N:0 U:15
﻿wikicat_Administrative_subdivisions_of_Heilongjiang


Disjunct, covering P:17 N:0 U:15
﻿wikicat_Administrative_subdivisions_of_Heilongjiang

﻿threshold: 0.8210526315789474
Subproblem ------------------------------------------
﻿
Specializing ⊤
 ﻿78	 75	 15
﻿   0. wikicat_1990_Goodwill_Games_venues
	   6	    0	    0		 ﻿+7.687258e-02 <--- current BEST
﻿   1. wikicat_1990_Goodwill_Games_venues
	   6	   ﻿ 0	    0		 +7.687258e-02
﻿   2. wikicat_1990s_radio_stations_in_the_United_States
	   3	    0	    0		 +3.513898e-02
﻿   3. wikicat_1990s_radio_stations_in_the_United_States
	   3	    0	    0		 +3.513898e-02
﻿   4. wikicat_Academic_libraries
	  16	    0	    0		 ﻿+2.180902e-01 <--- current BEST
﻿   5. wikicat_400_metres_hurdles_at_the_Pan_American_Games
	   5	    0	    0		 ﻿+6.286717e-02
﻿   6. wikicat_1984_Winter_Olympics_venues
	   9	    0	    0		 +1.191067e-01
﻿   7. wikicat_1984_Winter_Olympics_venues
	   9	    0	    0		 ﻿+1.191067e-01
﻿   8. wikicat_Academic_enclaves
	  16	    0	    0		 +2.180902e-01
﻿   9. wikicat_1990s_radio_stations_in_the_United_States
	   3	    0	    0		 +3.513898e-02
﻿  10. wikicat_1984_Winter_Olympics_venues
	   9	    0	    0		 ﻿+1.191067e-01
﻿  11. wikicat_1990s_radio_stations_in_the_United_States
	   3	    0	    0		 ﻿+3.513898e-02
﻿  12. wikicat_1990_Goodwill_Games_venues
	   6	    0	    0		 +7.687258e-02
﻿  13. wikicat_1984_Winter_Olympics_venues
	   9	    0	    0		 ﻿+1.191067e-01
﻿  14. wikicat_400_metres_hurdles_at_the_Pan_American_Games
	   5	    0	    0		 +6.286717e-02
﻿  15. wikicat_Academic_enclaves
	  16	    0	    0		 +2.180902e-01
﻿  16. wikicat_1984_Winter_Olympics_venues
	﻿   9	    0	    0		 ﻿+1.191067e-01
﻿  17. wikicat_1984_Winter_Olympics_venues
	   9	    0	    0		 +1.191067e-01
﻿  18. _Missouri
	   1	    0	    0		 ﻿+8.861810e-03
﻿  19. wikicat_1990s_radio_stations_in_the_United_States
	   3	    0	    0		 ﻿+3.513898e-02
0.2180902493330608
﻿************ best: ﻿2.180902e-01	 wikicat_Academic_libraries
﻿
Specialization, covering P:16 N:0 U:15
﻿wikicat_Academic_libraries


Disjunct, covering P:16 N:0 U:15
﻿wikicat_Academic_libraries

﻿threshold: 0.6526315789473685
Subproblem ------------------------------------------
﻿
Specializing ⊤
 ﻿62	 75	 15
﻿   0. wikicat_1990_Goodwill_Games_venues
	   6	    0	    0		 ﻿+1.146473e-01 <--- current BEST
﻿   1. wikicat_Academic_enclaves
	  16	    0	    0		 ﻿+3.222025e-01 <--- current BEST
﻿   2. _Missouri
	   1	    0	    0		 ﻿+1.413816e-02
﻿   3. wikicat_Administrative_villages_in_Indonesia
	   1	    0	    0		 ﻿+1.413816e-02
﻿   4. wikicat_Administrative_villages_in_Indonesia
	   1	    0	    0		 ﻿+1.413816e-02
﻿   5. wikicat_1990s_radio_stations_in_the_United_States
	   3	    0	    0		 ﻿+5.317541e-02
﻿   6. wikicat_Administrative_villages_in_Indonesia
	   1	    0	    0		 +1.413816e-02
﻿   7. wikicat_1984_Winter_Olympics_venues
	   9	    0	    0		 +1.767488e-01
﻿   8. wikicat_1990_Goodwill_Games_venues
	   6	    0	    0		 ﻿+1.146473e-01
﻿   9. wikicat_400_metres_hurdles_at_the_Pan_American_Games
	   5	    0	    0		 ﻿+9.403812e-02
﻿  10. wikicat_1990_Goodwill_Games_venues
	   6	    0	    0		 +1.146473e-01
﻿  11. wikicat_Aerospace_museums_in_Connecticut
	   2	    0	    0		 ﻿+3.317965e-02
﻿  12. wikicat_Academic_enclaves
	  16	    0	    0		 ﻿+3.222025e-01
﻿  13. wikicat_Administrative_villages_in_Indonesia
	   1	    0	    0		 +1.413816e-02
﻿  14. wikicat_1984_Winter_Olympics_venues
	   9	    0	    0		 +1.767488e-01
﻿  15. wikicat_1990s_radio_stations_in_the_United_States
	   3	    0	    0		 ﻿+5.317541e-02
﻿  16. wikicat_1990_Goodwill_Games_venues
	   6	    0	    0		 +1.146473e-01
﻿  17. wikicat_1984_Winter_Olympics_venues
	   9	    0	    0		 ﻿+1.767488e-01
﻿  18. _Missouri
	   1	    0	    0		 ﻿+1.413816e-02
﻿  19. wikicat_Administrative_villages_in_Indonesia
	   1	    0	    0		 +1.413816e-02
0.3222025383583687
﻿************ best: 3.222025e-01	 wikicat_Academic_enclaves

Specialization, covering P:16 N:0 U:15
wikicat_Academic_enclaves


Disjunct, covering P:16 N:0 U:15
wikicat_Academic_enclaves

﻿threshold: 0.4842105263157895
Subproblem ------------------------------------------

Specializing ⊤
 46	 75	 15
﻿   0. wikicat_1990s_radio_stations_in_the_United_States
	   3	    0	    0		 +8.910184e-02 <--- current BEST
﻿   1﻿. wikicat_1984_Winter_Olympics_venues
	   9	    0	    0		 ﻿+2.905186e-01 <--- current BEST
﻿   2. wikicat_1990_Goodwill_Games_venues
	   6	    0	    0		 ﻿+1.893858e-01
﻿   3. wikicat_1984_Winter_Olympics_venues
	   9	    0	    0		 ﻿+2.905186e-01
﻿   4. wikicat_1984_Winter_Olympics_venues
	   9	    0	    0		 ﻿+2.905186e-01
﻿   5. ﻿wikicat_1984_Winter_Olympics_venues
	   9	    0	    0		 +2.905186e-01
﻿   6. wikicat_Administrative_villages_in_Indonesia
	   1	    0	    0		 ﻿+2.486600e-02
﻿   7. wikicat_Administrative_villages_in_Indonesia
	   1	    0	    0		 +2.486600e-02
﻿   8. wikicat_1990_Goodwill_Games_venues
	   6	    0	    0		 +1.893858e-01
﻿   9. _Missouri
	   1	    0	    0		 ﻿+2.486600e-02
﻿  10. wikicat_1990_Goodwill_Games_venues
	   6	    0	    0		 ﻿+1.893858e-01
﻿  11. wikicat_Aerospace_museums_in_Connecticut
	   2	    0	    0		 ﻿+5.634082e-02
﻿  12. wikicat_Aerospace_museums_in_Connecticut
	   2	    0	    0		 ﻿+5.634082e-02
﻿  13. wikicat_1984_Winter_Olympics_venues
	   9	    0	    0		 +2.905186e-01
﻿  14. wikicat_Aerospace_museums_in_Connecticut
	   2	    0	    0		 ﻿+5.634082e-02
﻿  15. ⊤
	﻿  46	   75	   15		 ﻿+0.000000e+00
﻿  16. wikicat_Aerospace_museums_in_Connecticut
	   2	    0	    0		 ﻿+5.634082e-02
﻿  17. wikicat_1990_Goodwill_Games_venues
	   6	    0	    0		 ﻿+1.893858e-01
﻿  18. wikicat_1990_Goodwill_Games_venues
	   6	    0	    0		 ﻿+1.893858e-01
﻿  19. wikicat_Aerospace_museums_in_Connecticut
	   2	    0	    0		 ﻿+5.634082e-02
0.2905185698625754
************ best: 2.905186e-01	 wikicat_1984_Winter_Olympics_venues
﻿
Specialization, covering P:9 N:0 U:15
﻿wikicat_1984_Winter_Olympics_venues


Disjunct, covering P:9 N:0 U:15
wikicat_1984_Winter_Olympics_venues

﻿threshold: 0.3894736842105263
Subproblem ------------------------------------------
﻿
Specializing ⊤
 37	 75	 15
﻿   0. wikicat_400_metres_hurdles_at_the_Pan_American_Games
	   5	    0	    0		 ﻿+2.223852e-01 <--- current BEST
﻿   1. wikicat_Aerospace_museums_in_Connecticut
	   2	    0	    0		 ﻿+8.152145e-02
﻿   2. wikicat_1990s_radio_stations_in_the_United_States
	   3	    0	    0		 ﻿+1.279894e-01
﻿   3. wikicat_Administrative_villages_in_Indonesia
	   1	    0	    0		 ﻿+3.665254e-02
﻿   4. wikicat_1990s_radio_stations_in_the_United_States
	   3	    0	 ﻿   0		 ﻿+1.279894e-01
﻿   5. wikicat_400_metres_hurdles_at_the_Pan_American_Games
	   5	    0	    0		 ﻿+2.223852e-01
﻿   6. wikicat_1990_Goodwill_Games_venues
	   6	    0	    0		 ﻿+2.698810e-01 <--- current BEST
﻿   7. wikicat_Aerospace_museums_in_Connecticut
	   2	    0	    0		 ﻿+8.152145e-02
﻿   8. wikicat_1990_Goodwill_Games_venues
	   6	    0	    0		 ﻿+2.698810e-01
﻿   9. wikicat_1990s_radio_stations_in_the_United_States
	   3	    0	    0		 ﻿+1.279894e-01
﻿  10. wikicat_1990s_radio_stations_in_the_United_States
	   3	    0	    0		 ﻿+1.279894e-01
﻿  11. _Missouri
	   1	    0	    0		 ﻿+3.665254e-02
﻿  12. _Missouri
	   1	    0	    0		 ﻿+3.665254e-02
﻿  13. _Missouri
	   1	    0	    0		 ﻿+3.665254e-02
﻿  14. _Missouri
	   1	    0	    0		 ﻿+3.665254e-02
﻿  15. ﻿_Missouri
	   1	    0	    0		 ﻿+3.665254e-02
﻿  16. wikicat_1990_Goodwill_Games_venues
	   6	    0	    0		 ﻿+2.698810e-01
﻿  17. _Missouri
	   1	    0	    0		 ﻿+3.665254e-02
﻿  18. wikicat_Aerospace_museums_in_Connecticut
	   2	    0	    ﻿0		 +8.152145e-02
﻿  19. _Missouri
	   1	    0	    0		 ﻿+3.665254e-02
0.26988099009528765
************ best: 2.698810e-01	 wikicat_1990_Goodwill_Games_venues
﻿
Specialization, covering P:6 N:0 U:15
wikicat_1990_Goodwill_Games_venues


Disjunct, covering P:6 N:0 U:15
﻿wikicat_1990_Goodwill_Games_venues

﻿threshold: 0.3263157894736842
Subproblem ------------------------------------------
﻿
Specializing ⊤
 31	 75	 15
﻿   0. wikicat_Administrative_villages_in_Indonesia
	   1	    0	    0		 ﻿+4.962645e-02 <--- current BEST
﻿   1. _Missouri
	   1	    0	    0		 ﻿+4.962645e-02
﻿   2. ⊤
	  31	   75	   15		 ﻿+0.000000e+00
﻿   3. wikicat_400_metres_hurdles_at_the_Pan_American_Games
	   5	    0	    0		 ﻿+2.948269e-01 <--- current BEST
﻿   4. wikicat_400_metres_hurdles_at_the_Pan_American_Games
	   5	    0	    0		 ﻿+2.948269e-01
﻿   5. wikicat_400_metres_hurdles_at_the_Pan_American_Games
	   5	    0	    0		 ﻿+2.948269e-01
﻿   6. wikicat_Administrative_villages_in_Indonesia
	   1	    0	    0		 ﻿+4.962645e-02
﻿   7. wikicat_400_metres_hurdles_at_the_Pan_American_Games
	   5	    0	    0		 ﻿+2.948269e-01
﻿   8. wikicat_1990s_radio_stations_in_the_United_States
	   3	    0	    0		 ﻿+1.704012e-01
﻿   9. wikicat_1990s_radio_stations_in_the_United_States
	   3	    0	    0		 ﻿+1.704012e-01
﻿  10. wikicat_Aerospace_museums_in_Connecticut
	   2	    0	    0		 +1.090595e-01
﻿  11. wikicat_1990s_radio_stations_in_the_United_States
	   3	    0	    0		 ﻿+1.704012e-01
﻿  12. _Missouri
	   1	    0	    0		 ﻿+4.962645e-02
﻿  13. wikicat_1990s_radio_stations_in_the_United_States
	   3	    0	    0		 ﻿+1.704012e-01
﻿  14. wikicat_1990s_radio_stations_in_the_United_States
	   3	    0	    0		 ﻿+1.704012e-01
﻿  15. wikicat_Administrative_villages_in_Indonesia
	   1	    0	    0		 ﻿+4.962645e-02
﻿  16. _Missouri
	   1	    0	    0		 ﻿+4.962645e-02
﻿  17. wikicat_1990s_radio_stations_in_the_United_States
	   3	    0	    0		 ﻿+1.704012e-01
﻿  18. wikicat_400_metres_hurdles_at_the_Pan_American_Games
	   5	    0	    0		 ﻿+2.948269e-01
﻿  19. wikicat_Administrative_villages_in_Indonesia
	   1	    0	    0		 ﻿+4.962645e-02
0.2948268599966308
************ best: 2.948269e-01	 wikicat_400_metres_hurdles_at_the_Pan_American_Games
﻿
Specialization, covering P:5 N:0 U:15
﻿wikicat_400_metres_hurdles_at_the_Pan_American_Games


Disjunct, covering P:5 N:0 U:15
wikicat_400_metres_hurdles_at_the_Pan_American_Games

﻿threshold: 0.2736842105263158
Subproblem ------------------------------------------
﻿
Specializing ⊤
 26	 75	 15
﻿   0. wikicat_Administrative_villages_in_Indonesia
	   1	    0	    0		 ﻿+6.643872e-02 <--- current BEST
﻿   1. wikicat_Aerospace_museums_in_Connecticut
	   2	    0	    0		 ﻿+1.445700e-01 <--- current BEST
﻿   2. wikicat_1990s_radio_stations_in_the_United_States
	   3	    0	    0		 ﻿+2.249768e-01 <--- current BEST
﻿   3. wikicat_1990s_radio_stations_in_the_United_States
	   3	    0	    0		 ﻿+2.249768e-01
﻿   4. wikicat_Administrative_villages_in_Indonesia
	   1	    0	    0		 ﻿+6.643872e-02
﻿   5. wikicat_Aerospace_museums_in_Connecticut
	   2	    0	    0		 ﻿+1.445700e-01
﻿   6. ⊤
	  26	   75	   15		 ﻿+0.000000e+00
﻿   7. wikicat_Administrative_villages_in_Indonesia
	   1	    0	    0		 ﻿+6.643872e-02
﻿   8. _Missouri
	   1	    0	    0		 ﻿+6.643872e-02
﻿   9. wikicat_1990s_radio_stations_in_the_United_States
	   3	    0	    0		 ﻿+2.249768e-01
﻿  10. wikicat_Administrative_villages_in_Indonesia
	   1	    0	    0		 ﻿+6.643872e-02
﻿  11. _Missouri
	   1	    0	    0		 ﻿+6.643872e-02
﻿  12. wikicat_Aerospace_museums_in_Connecticut
	   2	    0	    0		 ﻿+1.445700e-01
﻿  13. _Missouri
	   1	 ﻿   0	    0		 ﻿+6.643872e-02
﻿  14. wikicat_1990s_radio_stations_in_the_United_States
	   3	    0	    0		 ﻿+2.249768e-01
﻿  15. wikicat_Administrative_villages_in_Indonesia
	   1	    0	    0		 ﻿+6.643872e-02
﻿  16. wikicat_Administrative_villages_in_Indonesia
	   1	    0	    0		 ﻿+6.643872e-02
﻿  17. wikicat_1990s_radio_stations_in_the_United_States
	   3	    0	    0		 ﻿+2.249768e-01
﻿  18. wikicat_Aerospace_museums_in_Connecticut
	   2	    0	    0		 ﻿+1.445700e-01
﻿  19. wikicat_1990s_radio_stations_in_the_United_States
	   3	    0	    0		 ﻿+2.249768e-01
0.2249768292782088
************ best: 2.249768e-01	 wikicat_1990s_radio_stations_in_the_United_States
﻿
Specialization, covering P:3 N:0 U:15
wikicat_1990s_radio_stations_in_the_United_States

﻿
Disjunct, covering P:3 N:0 U:15
wikicat_1990s_radio_stations_in_the_United_States

﻿threshold: 0.24210526315789474
Subproblem ------------------------------------------

Specializing ⊤
 23	 75	 15
﻿   0. wikicat_Administrative_villages_in_Indonesia
	   1	    0	    0		 ﻿+8.101146e-02 <--- current BEST
﻿   1. wikicat_Administrative_villages_in_Indonesia
	   1	    0	    0		 ﻿+8.101146e-02
﻿   2. wikicat_Aerospace_museums_in_Connecticut
	   2	    0	    0		 ﻿+1.752406e-01 <--- current BEST
﻿   3. wikicat_Administrative_villages_in_Indonesia
	   1	    0	    0		 ﻿+8.101146e-02
﻿   4. wikicat_Aerospace_museums_in_Connecticut
	   2	    0	    0		 ﻿+1.752406e-01
﻿   5. wikicat_Administrative_villages_in_Indonesia
	   1	    0	    0		 ﻿+8.101146e-02
﻿   6. wikicat_Administrative_villages_in_Indonesia
	   1	    0	    0		 ﻿+8.101146e-02
﻿   7. _Missouri
	   1	    0	    0		 ﻿+8.101146e-02
﻿   8. _Missouri
	   1	    0	    0		 ﻿+8.101146e-02
﻿   9. wikicat_Aerospace_museums_in_Connecticut
	   2	    ﻿0	    0		 +1.752406e-01
﻿  10. wikicat_Administrative_villages_in_Indonesia
	   1	    0	    0		 ﻿+8.101146e-02
﻿  11. ⊤
	  23	   75	   15		 +0.000000e+00
﻿  12. wikicat_Aerospace_museums_in_Connecticut
	   2	    0	    0		 ﻿+1.752406e-01
﻿  13. _Missouri
	   1	    0	    0		 ﻿+8.101146e-02
﻿  14. wikicat_Aerospace_museums_in_Connecticut
	   2	    0	    0		 ﻿+1.752406e-01
﻿  15. _Missouri
	   1	    0	    0		 ﻿+8.101146e-02
﻿  16. _Missouri
	   1	    0	    0		 ﻿+8.101146e-02
﻿  17. wikicat_Aerospace_museums_in_Connecticut
	   2	    0	    0		 ﻿+1.752406e-01
﻿  18. wikicat_Aerospace_museums_in_Connecticut
	   2	    0	    0		 ﻿+1.752406e-01
﻿  19. wikicat_Aerospace_museums_in_Connecticut
	   2	    0	    0		 ﻿+1.752406e-01
0.17524058753507046
﻿************ best: ﻿1.752406e-01	 wikicat_Aerospace_museums_in_Connecticut
﻿
Specialization, covering P:2 N:0 U:15
wikicat_Aerospace_museums_in_Connecticut


Disjunct, covering P:2 N:0 U:15
wikicat_Aerospace_museums_in_Connecticut

﻿threshold: 0.22105263157894736
Subproblem ------------------------------------------
﻿
Specializing ⊤
 21	 75	 15
﻿   0. wikicat_Administrative_villages_in_Indonesia
	   1	    0	    0		 ﻿+9.362156e-02 <--- current BEST
﻿   1. _Missouri
	   1	    0	    0		 ﻿+9.362156e-02
﻿   2. _Missouri
	   1	    0	    0		 ﻿+9.362156e-02
﻿   3. _Missouri
	   1	    0	    0		 ﻿+9.362156e-02
﻿   4. wikicat_Administrative_villages_in_Indonesia
	   1	    0	    0		 ﻿+9.362156e-02
﻿   5. wikicat_Administrative_villages_in_Indonesia
	   1	    0	    0		 ﻿+9.362156e-02
﻿   6. wikicat_Administrative_villages_in_Indonesia
	   1	    0	    0		 ﻿+9.362156e-02
﻿   7. wikicat_Administrative_villages_in_Indonesia
	 ﻿  1	    0	    0		 ﻿+9.362156e-02
﻿   8. wikicat_Administrative_villages_in_Indonesia
	   1	    0	    0		 ﻿+9.362156e-02
﻿   9. _Missouri
	   1	    0	    0		 ﻿+9.362156e-02
﻿  10. _Missouri
	   1	    0	    0		 ﻿+9.362156e-02
﻿  11. _Missouri
	   1	    0	    0		 ﻿+9.362156e-02
﻿  12. wikicat_Administrative_villages_in_Indonesia
	   1	    0	    0		 ﻿+9.362156e-02
﻿  13. _Missouri
	   1	  ﻿  0	    0		 +9.362156e-02
﻿  14. wikicat_Administrative_villages_in_Indonesia
	   1	    0	    0		 ﻿+9.362156e-02
﻿  15. _Missouri
	   1	    0	    0		 ﻿+9.362156e-02
﻿  16. _Missouri
	   1	    0	    0		 ﻿+9.362156e-02
﻿  17. wikicat_Administrative_villages_in_Indonesia
	   1	    0	    0		 ﻿+9.362156e-02
﻿  18. ⊤
	  21	   75	   15		 ﻿+0.000000e+00
﻿  19. ⊤
	  21	   75	   15		 ﻿+0.000000e+00
0.0936215556226982
﻿************ best: ﻿9.362156e-02	 wikicat_Administrative_villages_in_Indonesia
﻿
Specialization, covering P:1 N:0 U:15
wikicat_Administrative_villages_in_Indonesia


Disjunct, covering P:1 N:0 U:15
wikicat_Administrative_villages_in_Indonesia

﻿threshold: 0.21052631578947367
Subproblem ------------------------------------------

Specializing ⊤
 20	 75	 15
﻿   0. ﻿_Missouri
	   1	    0	    0		 +1.010913e-01 <--- current BEST
﻿   1. _Missouri
	   1	    0	    0		 ﻿+1.010913e-01
﻿   2. _Missouri
	   1	    0	    0		 ﻿+1.010913e-01
﻿   3. _Missouri
	   1	    0	    0		 ﻿+1.010913e-01
﻿   4. _Missouri
	   1	    0	    0		 ﻿+1.010913e-01
﻿   5. _Missouri
	   1	    0	    0		 ﻿+1.010913e-01
﻿   6. ⊤
	  20	 ﻿  75	   15		 +0.000000e+00
﻿   7. _Missouri
	   1	    0	    0		 ﻿+1.010913e-01
﻿   8. ⊤
	﻿  20	   75	   15		 ﻿+0.000000e+00
﻿   9. _Missouri
	   1	    0	    0		 +1.010913e-01
﻿  10. _Missouri
	   1	    0	    0		 ﻿+1.010913e-01
﻿  11. _Missouri
	   1	    0	    0		 ﻿+1.010913e-01
﻿  12. _Missouri
	   1	    0	    0		 ﻿+1.010913e-01
﻿  13. _Missouri
	   1	    0	    0		 ﻿+1.010913e-01
﻿  14. _Missouri
	   1	    0	    0		 ﻿+1.010913e-01
﻿  15. _Missouri
	   1	    0	    0		 ﻿+1.010913e-01
﻿  16. _Missouri
	   1	    0	    0		 ﻿+1.010913e-01
﻿  17. _Missouri
	   1	   ﻿ 0	    0		 +1.010913e-01
﻿  18. ⊤
	  20	   75	   15		 ﻿+0.000000e+00
﻿  19. _Missouri
	   1	    0	    0		 ﻿+1.010913e-01
0.10109131812265892
************ best: 1.010913e-01	 _Missouri
﻿
Specialization, covering P:1 N:0 U:15
_Missouri


Disjunct, covering P:1 N:0 U:15
_Missouri

﻿threshold: 0.2
Subproblem ------------------------------------------

Specializing ⊤
 19	 75	 15
﻿   0. ⊤
	  19	   75	   15		 ﻿+0.000000e+00
﻿   1. ⊤﻿
	  19	   75	   15		 ﻿+0.000000e+00
﻿   2. ⊤
	  19	   75	   15		 ﻿+0.000000e+00
﻿   3. ⊤
	  19	   75	   15		 ﻿+0.000000e+00
﻿   4. ⊤
	  19	   75	   15		 ﻿+0.000000e+00
﻿   5. ⊤
	  19	   75	   15		 ﻿+0.000000e+00
﻿   6. ⊤
	  19	   75	   15		 ﻿+0.000000e+00
﻿   7. ⊤
	  19	   75	   15		 ﻿+0.000000e+00
﻿   8. ⊤
	  19	   75	   15		 ﻿+0.000000e+00
﻿   9. ⊤
	  19	   75	   15		 ﻿+0.000000e+00
﻿  10. ⊤
	  19	   75	   15		 ﻿+0.000000e+00
﻿  11. ⊤
	  19	   75	   15		 ﻿+0.000000e+00
﻿  12. ⊤
	  19	   75	   15		 ﻿+0.000000e+00
﻿  13. ⊤
	  19	   75	   15		 ﻿+0.000000e+00
﻿  14. ⊤
	  19	   75	   15		 ﻿+0.000000e+00
﻿  15. ⊤
	  19	   75	   15		 ﻿+0.000000e+00
﻿  16. ⊤
	  19	   75	   15		 ﻿+0.000000e+00
﻿  17. ⊤
	  19	   75	   15		 ﻿+0.000000e+00
﻿  18. ⊤
	  19	   75	   15		 ﻿+0.000000e+00
﻿  19. ⊤
	  19	   75	   15		 ﻿+0.000000e+00
﻿-1.7976931348623157E308

No good specialization found. Trying again... 
﻿
Specializing ⊤
 19	 75	 15
﻿   0. ⊤
	  19	   75	   15		 ﻿+0.000000e+00
﻿   1. ¬wikicat_Academies_in_Kent
	  19	    0	    0		 ﻿+2.459432e+00 <--- current BEST
﻿   2. ¬wikicat_985_mm_gauge_railways
	  19	    0	    0		 ﻿+2.459432e+00
﻿   3. ¬wordnet_organization_108008335
	  19	    0	    0		 ﻿+2.459432e+00
﻿   4. ¬wikicat_985_mm_gauge_railways
	  19	    0	    0		 ﻿+2.459432e+00
﻿   5. ⊤
	  19	   75	   15		 ﻿+0.000000e+00
﻿   6. ¬wikicat_16th-century_Christian_church_councils
	  19	    0	    0		 ﻿+2.459432e+00
﻿   7. ¬wikicat_985_mm_gauge_railways
	  19	    0	    0		 ﻿+2.459432e+00
﻿   8. ¬wikicat_Academies_in_Kent
	  19	    0	    0		 ﻿+2.459432e+00
﻿   9. ¬wikicat_Academies_in_Enfield
	  19	    0	    0		 ﻿+2.459432e+00
﻿  10. ¬wikicat_985_mm_gauge_railways
	  19	    0	    0		 ﻿+2.459432e+00
﻿  11. ¬_domestic_association_football_leagues
	  19	    0	    0		 ﻿+2.459432e+00
﻿  12. ¬_domestic_association_football_leagues
	  19	    0	    0		 ﻿+2.459432e+00
﻿  13. ¬_domestic_association_football_leagues
	  19	    0	    0		 ﻿+2.459432e+00
﻿  14. ⊤
	  19	   75	   15		 ﻿+0.000000e+00
﻿  15. ¬_domestic_association_football_leagues
	  19	    0	    0		 ﻿+2.459432e+00
﻿  16. ¬wikicat_785_mm_gauge_railways_in_Germany
	  19	    0	    0		 ﻿+2.459432e+00
﻿  17. ¬_ice_hockey_leagues
	  19	    0	    0		 ﻿+2.459432e+00
﻿  18. ¬_ice_hockey_leagues
	  19	    0	    0		 ﻿+2.459432e+00
﻿  19. ¬_domestic_association_football_leagues
	  19	    0	    0		 ﻿+2.459432e+00
2.459431618637297
************ best: 2.459432e+00	 ¬wikicat_Academies_in_Kent
﻿
Specialization, covering P:19 N:0 U:15
¬wikicat_Academies_in_Kent


Disjunct, covering P:19 N:0 U:15
﻿¬wikicat_Academies_in_Kent

﻿
 FINAL: wikicat_1984_Winter_Olympics_venues ⊔ wikicat_1990_Goodwill_Games_venues ⊔ wikicat_1990s_radio_stations_in_the_United_States ⊔ wikicat_400_metres_hurdles_at_the_Pan_American_Games ⊔ wikicat_Academic_enclaves ⊔ wikicat_Academic_libraries ⊔ wikicat_Administrative_subdivisions_of_Heilongjiang ⊔ wikicat_Administrative_villages_in_Indonesia ⊔ wikicat_Aerospace_museums_in_Connecticut ⊔ _Missouri ⊔ (¬wikicat_Academies_in_Kent)﻿

induced for target #0:

yagoGeoEntity 


﻿

 |||||||||||||||||||||||||||||||||||||||||||||||||||||||||| OUTCOMES FOLD #0
Algorithm: class it.uniba.di.lacam.ml.dlfoil.CEClassificationModel2

  TargetC#   matching commission   omission  induction  precision     recall
        0.      0.810      0.000      0.190      0.000      1.000      1.000
----------------------------------------------------------------------------------------------
﻿  AVERAGES      0.810      0.000      0.190      0.000      1.000      1.000


Fold #1 **************************************************************************************************
#training examples 185 - fold: 1

--------- Target Concept #0 
yagoGeoEntity﻿

Learning problem prepared.
﻿
 Problem	 p:99	 n:73	 u:13	
﻿threshold: 1.0
Subproblem ------------------------------------------

Specializing ⊤
 99	 73	 13
﻿   0. wikicat_1984_Winter_Olympics_venues
	   9	    0	    0		 ﻿+7.532124e-02 <--- current BEST
﻿   1. wikicat_Aerospace_museums_in_Connecticut
	   1	    0	    0		 ﻿+4.924209e-03
﻿   2. wikicat_Academic_enclaves
	  18	    ﻿0	    0		 ﻿+1.571018e-01 <--- current BEST
﻿   3. wikicat_1990s_radio_stations_in_the_United_States
	   3	    0	    0		 +2.151179e-02
﻿   4. wikicat_1990s_radio_stations_in_the_United_States
	   3	    0	    0		 ﻿+2.151179e-02
﻿   5. wikicat_Academic_libraries
	  20	    0	    0		 +1.753068e-01 <--- current BEST
﻿   6. wikicat_1990s_radio_stations_in_the_United_States
	   3	    0	    0		 +2.151179e-02
﻿   7. wikicat_Academic_libraries
	  20	    0	    0		 +1.753068e-01
﻿   8. wikicat_Administrative_subdivisions_of_Heilongjiang
	  18	    0	    0		 ﻿+1.571018e-01
﻿   9. wikicat_1984_Winter_Olympics_venues
	   9	    0	    0		 ﻿+7.532124e-02
﻿  10. wikicat_Administrative_villages_in_Indonesia
	   1	    0	    0		 ﻿+4.924209e-03
﻿  11. wikicat_Academic_libraries
	  20	    0	    0		 ﻿+1.753068e-01
﻿  12. wikicat_Administrative_villages_in_Indonesia
	   1	    0	    0		 ﻿+4.924209e-03
﻿  13. ¬wikicat_Academies_in_Kent
	  99	    0	    0		 ﻿+8.953026e-01 <--- current BEST
﻿  14. ¬wordnet_organization_108008335
	  99	    0	    0		 ﻿+8.953026e-01
﻿  15. ¬wikicat_750_mm_gauge_railways
	  99	    0	    0		 +8.953026e-01
﻿  16. wikicat_1984_Winter_Olympics_venues
	   9	    0	    0		 +7.532124e-02
﻿  17. wikicat_Academic_libraries
	  20	    0	    0		 ﻿+1.753068e-01
﻿  18. _Missouri
	   2	    0	    0		 ﻿+1.291919e-02
﻿  19. wikicat_Aerospace_museums_in_Connecticut
	   1	    0	    0		 ﻿+4.924209e-03
0.8953026213333068
************ best: 8.953026e-01	 ¬wikicat_Academies_in_Kent
﻿
Specialization, covering P:99 N:0 U:13
﻿¬wikicat_Academies_in_Kent


Disjunct, covering P:99 N:0 U:13
¬wikicat_Academies_in_Kent

﻿
 FINAL: ¬wikicat_Academies_in_Kent

induced for target #0:

yagoGeoEntity 


﻿

 |||||||||||||||||||||||||||||||||||||||||||||||||||||||||| OUTCOMES FOLD #1
Algorithm: class it.uniba.di.lacam.ml.dlfoil.CEClassificationModel2
﻿
  TargetC#   matching commission   omission  induction  precision     recall
﻿        0. ﻿     0.762      0.000      0.238      0.000      1.000      1.000
----------------------------------------------------------------------------------------------
﻿  AVERAGES      0.762      0.000      0.238      0.000      1.000      1.000
﻿

Fold #2 **************************************************************************************************
#training examples 185 - fold: 2

﻿--------- Target Concept #0 
yagoGeoEntity﻿

Learning problem prepared.
﻿
 Problem	 p:103	 n:70	 u:12	
threshold: 1.0
Subproblem ------------------------------------------
﻿
Specializing ⊤
 103	 70	 12
﻿   0. ¬wikicat_Administrative_villages_in_Indonesia
	  84	   70	    0		 ﻿-2.411788e-02
﻿   1. ¬wikicat_Aerospace_museums_in_Connecticut
	  83	   70	    0		 ﻿-3.014624e-02
﻿   2. wikicat_1984_Winter_Olympics_venues
	  10	    0	    0		 ﻿+7.558812e-02 <--- current BEST
﻿   3. wikicat_Academic_libraries
	  18	    0	    0		 ﻿+1.410637e-01 <--- current BEST
﻿   4. ¬wikicat_400_metres_hurdles_at_the_Pan_American_Games
	  80	   70	    0		 ﻿-4.801243e-02
﻿   5. wikicat_Academic_libraries
	  18	    0	    0		 ﻿+1.410637e-01
﻿   6. wikicat_1990_Goodwill_Games_venues
	   6	    0	    0		 ﻿+4.303437e-02
﻿   7. wikicat_Aerospace_museums_in_Connecticut
	   2	    0	    0		 ﻿+1.131335e-02
﻿   8. wikicat_Administrative_villages_in_Indonesia
	   1	    0	    0		 ﻿+4.180916e-03
﻿   9. ¬wikicat_Aerospace_museums_in_Connecticut
	  83	   70	    0		 ﻿-3.014624e-02
﻿  10. wikicat_Administrative_subdivisions_of_Heilongjiang
	  19	    0	    0		 ﻿+1.492599e-01 <--- current BEST
﻿  11. wikicat_1990_Goodwill_Games_venues
	   6﻿	    0	    0		 ﻿+4.303437e-02
﻿  12. _Missouri
	   2	    0	    0		 ﻿+1.131335e-02
﻿  13. wikicat_400_metres_hurdles_at_the_Pan_American_Games
	   5	    0	    0		 ﻿+3.495830e-02
﻿  14. wikicat_Administrative_subdivisions_of_Heilongjiang
	  19	    0	    0		 ﻿+1.492599e-01
﻿  15. _Missouri
	   2	    0	    0		 ﻿+1.131335e-02
﻿  16. _Missouri
	   2	    0	    0		 ﻿+1.131335e-02
﻿  17. ¬wikicat_985_mm_gauge_railways
	 103	    0	    0		 ﻿+8.387191e-01 <--- current BEST
﻿  18. wikicat_1990_Goodwill_Games_venues
	   6	    0	    0		 ﻿+4.303437e-02
﻿  19. wikicat_1990s_radio_stations_in_the_United_States
	   3	    0	    0		 ﻿+1.902020e-02
0.8387190929669395
************ best: 8.387191e-01	 ¬wikicat_985_mm_gauge_railways
﻿
Specialization, covering P:103 N:0 U:12
﻿¬wikicat_985_mm_gauge_railways


Disjunct, covering P:103 N:0 U:12
¬wikicat_985_mm_gauge_railways

﻿
 FINAL: ¬wikicat_985_mm_gauge_railways

induced for target #0:

yagoGeoEntity 


﻿

 |||||||||||||||||||||||||||||||||||||||||||||||||||||||||| OUTCOMES FOLD #2
Algorithm: class it.uniba.di.lacam.ml.dlfoil.CEClassificationModel2
﻿
  TargetC#   matching commission   omission  induction  precision     recall
﻿        0. ﻿     0.524 ﻿     0.000 ﻿     0.476      0.000      1.000      1.000
----------------------------------------------------------------------------------------------
﻿  AVERAGES ﻿     0.524      0.000 ﻿     0.476 ﻿     0.000 ﻿     1.000      1.000


Fold #3 **************************************************************************************************
﻿#training examples 185 - fold: 3

﻿--------- Target Concept #0 
yagoGeoEntity﻿

Learning problem prepared.

 Problem	 p:101	 n:69	 u:15	
﻿threshold: 1.0
Subproblem ------------------------------------------

Specializing ⊤
 101	 69	 15
﻿   0. wikicat_1990_Goodwill_Games_venues
	   5	    0	    0		 ﻿+3.704416e-02 <--- current BEST
﻿   1. ¬_domestic_association_football_leagues
	 101	    0	    0		 +8.667335e-01﻿ <--- current BEST
﻿   2. ¬_ice_hockey_leagues
	 101	    0	    0		 +8.667335e-01
﻿   3. wikicat_400_metres_hurdles_at_the_Pan_American_Games
	   6	    0	    0		 +4.555887e-02
﻿   4. wikicat_1984_Winter_Olympics_venues
	   9	    0	    0		 +7.127130e-02
﻿   5. wikicat_1990s_radio_stations_in_the_United_States
	   3	    0	    0		 ﻿+2.023300e-02
﻿   6. wikicat_1990_Goodwill_Games_venues
	   5	    0	    0		 ﻿+3.704416e-02
﻿   7. wikicat_Aerospace_museums_in_Connecticut
	   2	    0	    0		 ﻿+1.209482e-02
﻿   8. ¬wikicat_Academic_enclaves
	  63	   69	    0		 -1.202457e-01
﻿   9. wikicat_Academic_enclaves
	  19	    0	    0		 ﻿+1.575113e-01
﻿  10. wikicat_1990s_radio_stations_in_the_United_States
	   3	    0	    0		 ﻿+2.023300e-02
﻿  11. wikicat_1984_Winter_Olympics_venues
	   9	    0	    0		 ﻿+7.127130e-02
﻿  12. wikicat_400_metres_hurdles_at_the_Pan_American_Games
	   6	    0	    0		 ﻿+4.555887e-02
﻿  13. _Missouri
	   2	    0	    0		 ﻿+1.209482e-02
﻿  14. wikicat_1984_Winter_Olympics_venues
	   9	    0	    0		 ﻿+7.127130e-02
﻿  15. wikicat_Administrative_subdivisions_of_Heilongjiang
	  16	    0	    0		 ﻿+1.316046e-01
﻿  16. wikicat_Administrative_villages_in_Indonesia
	   1	    0	    0		 ﻿+4.542430e-03
﻿  17. ¬_Missouri
	  80	   69	    0		 ﻿-1.907241e-02
﻿  18. wikicat_1990_Goodwill_Games_venues
	   5	    0	    0		 ﻿+3.704416e-02
﻿  19. wikicat_Aerospace_museums_in_Connecticut
	   2	    0	    0		 ﻿+1.209482e-02
0.8667334691365359
************ best: 8.667335e-01	 ¬_domestic_association_football_leagues
﻿
Specialization, covering P:101 N:0 U:15
¬_domestic_association_football_leagues


Disjunct, covering P:101 N:0 U:15
¬_domestic_association_football_leagues

﻿
 FINAL: ¬_domestic_association_football_leagues

induced for target #0:

yagoGeoEntity 


﻿

 |||||||||||||||||||||||||||||||||||||||||||||||||||||||||| OUTCOMES FOLD #3
Algorithm: class it.uniba.di.lacam.ml.dlfoil.CEClassificationModel2
﻿
  TargetC#   matching commission   omission  induction  precision     recall
﻿        0. ﻿     0.476      0.000      0.524      0.000      1.000      1.000
----------------------------------------------------------------------------------------------
  AVERAGES      0.476      0.000      0.524      0.000      1.000      1.000


Fold #4 **************************************************************************************************
#training examples 185 - fold: 4

--------- Target Concept #0 
yagoGeoEntity﻿

Learning problem prepared.
﻿
 Problem	 p:99	 n:72	 u:14	
threshold: 1.0
Subproblem ------------------------------------------

Specializing ⊤﻿
 99	 72	 14
﻿   0. wikicat_Administrative_subdivisions_of_Heilongjiang
	  18	    0	    0		 ﻿+1.571018e-01 <--- current BEST
﻿   1. wikicat_1990s_radio_stations_in_the_United_States
	   2	    0	    0		 ﻿+1.291919e-02
﻿   2. ¬_domestic_association_football_leagues
	  99	    0	    0		 ﻿+8.953026e-01 <--- current BEST
﻿   3. wikicat_1990_Goodwill_Games_venues
	   7	    0	    0		 ﻿+5.723206e-02
﻿   4. wikicat_Academic_libraries
	  18	    0	    0		 ﻿+1.571018e-01
﻿   5. wikicat_Administrative_subdivisions_of_Heilongjiang
	  18	    0	    0		 ﻿+1.571018e-01
﻿   6. wikicat_Administrative_subdivisions_of_Heilongjiang
	  18	    0	    0		 ﻿+1.571018e-01
﻿   7. wikicat_Administrative_subdivisions_of_Heilongjiang
	  18	    0	    0		 ﻿+1.571018e-01
﻿   8. wikicat_1984_Winter_Olympics_venues
	   9	    0	    0		 ﻿+7.532124e-02
﻿   9. wikicat_Administrative_villages_in_Indonesia
	   1	    0	    0		 ﻿+4.924209e-03
﻿  10. wikicat_1990s_radio_stations_in_the_United_States
	   2	    0	    0		 ﻿+1.291919e-02
﻿  11. wikicat_Administrative_villages_in_Indonesia
	   1	    0	    0		 ﻿+4.924209e-03
﻿  12. wikicat_Aerospace_museums_in_Connecticut
	   2	    0	    0		 ﻿+1.291919e-02
﻿  13. _Missouri
	   2	    0	    0		 ﻿+1.291919e-02
﻿  14. wikicat_1990s_radio_stations_in_the_United_States
	   2	    0	    0		 ﻿+1.291919e-02
﻿  15. ¬wikicat_1984_Winter_Olympics_venues
	  73	   72	    0		 -6.460723e-02
﻿  16. wikicat_1990_Goodwill_Games_venues
	   7	    0	    0		 +5.723206e-02
﻿  17. wikicat_1990s_radio_stations_in_the_United_States
	   2	    0	    0		 +1.291919e-02
﻿  18. wikicat_1984_Winter_Olympics_venues
	   9	    0	    0		 ﻿+7.532124e-02
﻿  19. wikicat_1990_Goodwill_Games_venues
	   7	    0	    0		 +5.723206e-02
﻿0.8953026213333068
************ best: 8.953026e-01	 ¬_domestic_association_football_leagues
﻿
Specialization, covering P:99 N:0 U:14
¬_domestic_association_football_leagues


Disjunct, covering P:99 N:0 U:14
¬_domestic_association_football_leagues

﻿
 FINAL: ¬_domestic_association_football_leagues

induced for target #0:

yagoGeoEntity 


﻿

 |||||||||||||||||||||||||||||||||||||||||||||||||||||||||| OUTCOMES FOLD #4
Algorithm: class it.uniba.di.lacam.ml.dlfoil.CEClassificationModel2
﻿
  TargetC#   matching commission   omission  induction  precision     recall
﻿        0. ﻿     0.667 ﻿     0.000      0.333      0.000      1.000      1.000
----------------------------------------------------------------------------------------------
﻿  AVERAGES      0.667      0.000      0.333      0.000      1.000      1.000


Fold #5 **************************************************************************************************
#training examples 185 - fold: 5

﻿--------- Target Concept #0 
yagoGeoEntity﻿

Learning problem prepared.

 Problem	 p:100	 n:70	 u:15	
﻿threshold: 1.0
Subproblem ------------------------------------------

Specializing ⊤
 100	 70	 15
﻿   0. wikicat_1990_Goodwill_Games_venues
	   7	    0	    0		 ﻿+5.564984e-02 <--- current BEST
﻿   1. wikicat_Aerospace_museums_in_Connecticut
	   2	    0	    0		 ﻿+1.250145e-02
﻿   2. wikicat_1990s_radio_stations_in_the_United_States
	   3	    0	    0		 ﻿+2.086386e-02
﻿   3. wikicat_Academic_libraries
	  18	    0	    0		 ﻿+1.529339e-01 <--- current BEST
﻿   4. wikicat_Administrative_villages_in_Indonesia
	   1	    0	    0		 ﻿+4.730696e-03
﻿   5. wikicat_Academic_libraries
	  18	    0	    0		 ﻿+1.529339e-01
﻿   6. wikicat_Academic_enclaves
	  19	    0	    0		 ﻿+1.618004e-01 <--- current BEST
﻿   7. ¬wikicat_Administrative_villages_in_Indonesia
	  81	   70	    0		 -8.984714e-03
﻿   8. ¬wikicat_16th-century_Christian_church_councils
	 100	    0	    0		 +8.809473e-01 <--- current BEST
﻿   9. wikicat_Administrative_subdivisions_of_Heilongjiang
	  16	    0	    0		 +1.352061e-01
﻿  10. wikicat_Aerospace_museums_in_Connecticut
	   2	    0	    0		 +1.250145e-02
﻿  11. wikicat_1990s_radio_stations_in_the_United_States
	   3	    0	    0		 ﻿+2.086386e-02
﻿  12. ¬_Missouri
	  81	   70	    0		 -8.984714e-03
﻿  13. wikicat_1990s_radio_stations_in_the_United_States
	   3	    0	    0		 ﻿+2.086386e-02
﻿  14. wikicat_Administrative_subdivisions_of_Heilongjiang
	  16	    0	    0		 +1.352061e-01
﻿  15. _Missouri
	   1	    0	    0		 +4.730696e-03
﻿  16. wikicat_1990s_radio_stations_in_the_United_States
	   3	    0	    0		 ﻿+2.086386e-02
﻿  17. wikicat_1990s_radio_stations_in_the_United_States
	   3	    0	    0		 ﻿+2.086386e-02
﻿  18. wikicat_Academic_libraries
	  18	    0	    0		 ﻿+1.529339e-01
﻿  19. wikicat_Academic_libraries
	  18	    0	    0		 +1.529339e-01
0.8809473283562368
************ best: 8.809473e-01	 ¬wikicat_16th-century_Christian_church_councils
﻿
Specialization, covering P:100 N:0 U:15
¬wikicat_16th-century_Christian_church_councils


Disjunct, covering P:100 N:0 U:15
¬wikicat_16th-century_Christian_church_councils

﻿
 FINAL: ¬wikicat_16th-century_Christian_church_councils

induced for target #0:

yagoGeoEntity 


﻿

 |||||||||||||||||||||||||||||||||||||||||||||||||||||||||| OUTCOMES FOLD #5
Algorithm: class it.uniba.di.lacam.ml.dlfoil.CEClassificationModel2

  TargetC#   matching commission   omission  induction  precision     recall
﻿        0.      0.619      0.000      0.381      0.000      1.000      1.000
----------------------------------------------------------------------------------------------
﻿  AVERAGES      0.619      0.000      0.381      0.000      1.000      1.000


Fold #6 **************************************************************************************************
#training examples 185 - fold: 6

﻿--------- Target Concept #0 
yagoGeoEntity﻿

Learning problem prepared.
﻿
 Problem	 p:100	 n:72	 u:13	
threshold: 1.0
Subproblem ------------------------------------------

Specializing ⊤
 100	 72	 13
﻿   0. ¬wikicat_Administrative_subdivisions_of_Heilongjiang
	  62	   72	    0		 -1.382130e-01
﻿   1. wikicat_Academic_libraries
	  18	    0	    0		 +1.529339e-01 <--- current BEST
﻿   2. wikicat_Aerospace_museums_in_Connecticut
	   2	    0	    0		 +1.250145e-02
﻿   3. wikicat_Administrative_villages_in_Indonesia
	   1	    0	    0		 ﻿+4.730696e-03
﻿   4. wikicat_400_metres_hurdles_at_the_Pan_American_Games
	   5	    0	    0		 +3.812881e-02
﻿   5. wikicat_400_metres_hurdles_at_the_Pan_American_Games
	   5	    0	    0		 +3.812881e-02
﻿   6. ⊤
	 100	   72	   13		 ﻿+0.000000e+00
﻿   7. wikicat_1990_Goodwill_Games_venues
	   7	    0	    0		 ﻿+5.564984e-02
﻿   8. wikicat_400_metres_hurdles_at_the_Pan_American_Games
	   5	    0	    0		 ﻿+3.812881e-02
﻿   9. wikicat_1984_Winter_Olympics_venues
	   7	    0	    0		 ﻿+5.564984e-02
﻿  10. ¬wikicat_750_mm_gauge_railways
	 100	    0	    0		 +8.809473e-01 <--- current BEST
﻿  11. wikicat_Academic_enclaves
	  18	    0	    0		 +1.529339e-01
﻿  12. ¬_domestic_association_football_leagues
	 100	    0	    0		 +8.809473e-01
﻿  13. wikicat_1990_Goodwill_Games_venues
	   7	    0	    0		 ﻿+5.564984e-02
﻿  14. _Missouri
	   2	    0	    0		 +1.250145e-02
﻿  15. wikicat_Administrative_villages_in_Indonesia
	   1	    0	    0		 ﻿+4.730696e-03
﻿  16. wikicat_400_metres_hurdles_at_the_Pan_American_Games
	   5	    0	    0		 ﻿+3.812881e-02
﻿  17. wikicat_1984_Winter_Olympics_venues
	   7	    0	    0		 ﻿+5.564984e-02
﻿  18. wikicat_400_metres_hurdles_at_the_Pan_American_Games
	   5	    0	    0		 ﻿+3.812881e-02
﻿  19. _Missouri
	   2	    0	    0		 ﻿+1.250145e-02
0.8809473283562368
************ best: 8.809473e-01	 ¬wikicat_750_mm_gauge_railways
﻿
Specialization, covering P:100 N:0 U:13
﻿¬wikicat_750_mm_gauge_railways


Disjunct, covering P:100 N:0 U:13
¬wikicat_750_mm_gauge_railways

﻿
 FINAL: ¬wikicat_750_mm_gauge_railways

induced for target #0:

yagoGeoEntity 


﻿

 |||||||||||||||||||||||||||||||||||||||||||||||||||||||||| OUTCOMES FOLD #6
Algorithm: class it.uniba.di.lacam.ml.dlfoil.CEClassificationModel2
﻿
  TargetC#   matching commission   omission  induction  precision     recall
﻿        0. ﻿     0.619      0.000      0.381      0.000      1.000      1.000
----------------------------------------------------------------------------------------------
﻿  AVERAGES      0.619      0.000      0.381      0.000      1.000      1.000


Fold #7 **************************************************************************************************
#training examples 185 - fold: 7

﻿--------- Target Concept #0 
yagoGeoEntity﻿

Learning problem prepared.
﻿
 Problem	 p:102	 n:69	 u:14	
threshold: 1.0
Subproblem ------------------------------------------
﻿
Specializing ⊤
 102	 69	 14
﻿   0. wikicat_Academic_enclaves
	  17	    0	    0		 ﻿+1.365061e-01 <--- current BEST
﻿   1. wikicat_1984_Winter_Olympics_venues
	   8	    0	    0		 ﻿+6.095816e-02
﻿   2. wikicat_1990_Goodwill_Games_venues
	   7	    0	    0		 ﻿+5.260770e-02
﻿   3. wikicat_400_metres_hurdles_at_the_Pan_American_Games
	   6	    0	    0		 ﻿+4.428021e-02
﻿   4. wikicat_Aerospace_museums_in_Connecticut
	   2	    0	    0		 ﻿+1.169891e-02
﻿   5. ¬wikicat_Administrative_villages_in_Indonesia
	  82	   69	    0		 ﻿-1.762726e-02
﻿   6. ¬wikicat_Administrative_villages_in_Indonesia
	  82	   69	    0		 ﻿-1.762726e-02
﻿   7. wikicat_1984_Winter_Olympics_venues
	   8	    0	    0		 ﻿+6.095816e-02
﻿   8. wikicat_Academic_libraries
	  17	    0	    0		 ﻿+1.365061e-01
﻿   9. _Missouri
	   2	    0	    0		 ﻿+1.169891e-02
﻿  10. wikicat_Academic_libraries
	  17	    0	    0		 +1.365061e-01
﻿  11. wikicat_400_metres_hurdles_at_the_Pan_American_Games
	   6	    0	    0		 ﻿+4.428021e-02
﻿  12. wikicat_1990_Goodwill_Games_venues
	   7	    0	    0		 ﻿+5.260770e-02
﻿  13. ¬wikicat_Administrative_villages_in_Indonesia
	  82	   ﻿69	    0		 -1.762726e-02
﻿  14. wikicat_Administrative_subdivisions_of_Heilongjiang
	  20	    0	    0		 +1.617477e-01 <--- current BEST
﻿  15. ¬wikicat_985_mm_gauge_railways
	 102	    0	    0		 ﻿+8.526583e-01 <--- current BEST
﻿  16. ¬wikicat_Academic_enclaves
	  65	   69	    0		 -1.170726e-01
﻿  17. wikicat_Academic_libraries
	  17	    0	    0		 ﻿+1.365061e-01
﻿  18. wikicat_1990_Goodwill_Games_venues
	   7	    0	    0		 +5.260770e-02
﻿  19. wikicat_Aerospace_museums_in_Connecticut
	   2	    0	    0		 ﻿+1.169891e-02
0.8526582839248132
************ best: 8.526583e-01	 ¬wikicat_985_mm_gauge_railways
﻿
Specialization, covering P:102 N:0 U:14
¬wikicat_985_mm_gauge_railways


Disjunct, covering P:102 N:0 U:14
¬wikicat_985_mm_gauge_railways

﻿
 FINAL: ¬wikicat_985_mm_gauge_railways

induced for target #0:

yagoGeoEntity 


﻿

 |||||||||||||||||||||||||||||||||||||||||||||||||||||||||| OUTCOMES FOLD #7
Algorithm: class it.uniba.di.lacam.ml.dlfoil.CEClassificationModel2
﻿
  TargetC#   matching commission   omission  induction  precision     recall
﻿        0. ﻿     0.476 ﻿     0.000      0.524      0.000      1.000      1.000
----------------------------------------------------------------------------------------------
﻿  AVERAGES      0.476      0.000      0.524      0.000      1.000      1.000
﻿

Fold #8 **************************************************************************************************
#training examples 185 - fold: 8

﻿--------- Target Concept #0 
yagoGeoEntity﻿

Learning problem prepared.
﻿
 Problem	 p:98	 n:76	 u:11	
threshold: 1.0
Subproblem ------------------------------------------

Specializing ⊤
 98	 76	 11
﻿   0. ¬wikicat_Academic_enclaves
	  63	   76	    0		 -1.436730e-01
﻿   1. wikicat_1990s_radio_stations_in_the_United_States
	   2	    0	    0		 ﻿+1.334842e-02 <--- current BEST
﻿   2. wikicat_Administrative_subdivisions_of_Heilongjiang
	  18	    0	    0		 ﻿+1.613815e-01 <--- current BEST
﻿   3. ¬wikicat_Academic_enclaves
	  63	   76	    0		 ﻿-1.436730e-01
﻿   4. wikicat_Aerospace_museums_in_Connecticut
	   1	    0	    0		 ﻿+5.123158e-03
﻿   5. wikicat_Academic_libraries
	  19	    0	    0		 +1.707249e-01 <--- current BEST
﻿   6. wikicat_Administrative_villages_in_Indonesia
	   1	    0	    0		 +5.123158e-03
﻿   7. wikicat_1990_Goodwill_Games_venues
	   5	    0	    0		 ﻿+4.038654e-02
﻿   8. wikicat_400_metres_hurdles_at_the_Pan_American_Games
	   5	    0	    0		 ﻿+4.038654e-02
﻿   9. wikicat_400_metres_hurdles_at_the_Pan_American_Games
	   5	    0	    0		 ﻿+4.038654e-02
﻿  10. wikicat_1984_Winter_Olympics_venues
	  10	    0	    0		 +8.673396e-02
﻿  11. wikicat_1990_Goodwill_Games_venues
	   5	    0	    0		 ﻿+4.038654e-02
﻿  12. wikicat_Administrative_subdivisions_of_Heilongjiang
	  18	    0	    0		 ﻿+1.613815e-01
﻿  13. wikicat_Administrative_subdivisions_of_Heilongjiang
	  18	    0	    0		 +1.613815e-01
﻿  14. wikicat_Administrative_villages_in_Indonesia
	   1	    0	    0		 +5.123158e-03
﻿  15. wikicat_Administrative_subdivisions_of_Heilongjiang
	  18	    0	    0		 ﻿+1.613815e-01
﻿  16. wikicat_Administrative_subdivisions_of_Heilongjiang
	  18	    0	    0		 ﻿+1.613815e-01
﻿  17. ¬wordnet_organization_108008335
	  98	    0	    0		 ﻿+9.098022e-01 <--- current BEST
﻿  18. wikicat_Administrative_villages_in_Indonesia
	   1	    0	    0		 +5.123158e-03
﻿  19. wikicat_Administrative_villages_in_Indonesia
	   1	    0	    0		 +5.123158e-03
﻿0.9098021910284219
************ best: 9.098022e-01	 ¬wordnet_organization_108008335
﻿
Specialization, covering P:98 N:0 U:11
¬wordnet_organization_108008335


Disjunct, covering P:98 N:0 U:11
¬wordnet_organization_108008335

﻿
 FINAL: ¬wordnet_organization_108008335

induced for target #0:

yagoGeoEntity 


﻿

 |||||||||||||||||||||||||||||||||||||||||||||||||||||||||| OUTCOMES FOLD #8
Algorithm: class it.uniba.di.lacam.ml.dlfoil.CEClassificationModel2

  TargetC#   matching commission   omission  induction  precision     recall
﻿        0.      1.000      0.000      0.000      0.000      1.000      1.000
----------------------------------------------------------------------------------------------
﻿  AVERAGES      1.000      0.000 ﻿     0.000      0.000      1.000      1.000


Fold #9 **************************************************************************************************
﻿#training examples 189 - fold: 9

﻿--------- Target Concept #0 
yagoGeoEntity﻿

Learning problem prepared.
﻿
 Problem	 p:102	 n:74	 u:13	
threshold: 1.0
Subproblem ------------------------------------------

Specializing ⊤
 102	 74	 13
﻿   0. wikicat_Administrative_subdivisions_of_Heilongjiang
	  18	    0	    0		 ﻿+1.503355e-01 <--- current BEST
﻿   1. _Missouri
	   2	    0	    0		 ﻿+1.230081e-02
﻿   2. wikicat_1984_Winter_Olympics_venues
	  10	    0	    0		 ﻿+8.071189e-02
﻿   3. wikicat_Aerospace_museums_in_Connecticut
	   2	    0	    0		 ﻿+1.230081e-02
﻿   4. wikicat_1984_Winter_Olympics_venues
	  10	    0	    0		 ﻿+8.071189e-02
﻿   5. ¬_domestic_association_football_leagues
	 102	    0	    0		 ﻿+8.833551e-01 <--- current BEST
﻿   6. wikicat_1984_Winter_Olympics_venues
	  10	    0	    0		 ﻿+8.071189e-02
﻿   7. wikicat_Administrative_villages_in_Indonesia
	   1	    0	    0		 ﻿+4.660177e-03
﻿   8. wikicat_1984_Winter_Olympics_venues
	  10	    0	    0		 ﻿+8.071189e-02
﻿   9. ¬wordnet_organization_108008335
	 102	    0	    0		 +8.833551e-01
﻿  10. wikicat_1990s_radio_stations_in_the_United_States
	   3	    0	    0		 +2.052148e-02
﻿  11. ¬wordnet_organization_108008335
	 102	    0	    0		 ﻿+8.833551e-01
﻿  12. wikicat_1990_Goodwill_Games_venues
	   7	    0	    0		 +5.471434e-02
﻿  13. wikicat_400_metres_hurdles_at_the_Pan_American_Games
	   5	    0	    0		 +3.749238e-02
﻿  14. wikicat_400_metres_hurdles_at_the_Pan_American_Games
	   5	    0	    0		 ﻿+3.749238e-02
﻿  15. wikicat_Administrative_villages_in_Indonesia
	   1	    0	    0﻿		 +4.660177e-03
﻿  16. wikicat_Administrative_villages_in_Indonesia
	   1	    0	    0		 +4.660177e-03
﻿  17. ¬wikicat_Academies_in_Kent
	 102	    0	    0		 +8.833551e-01
﻿  18. wikicat_Aerospace_museums_in_Connecticut
	   2	    0	    0		 ﻿+1.230081e-02
﻿  19. _Missouri
	   2	    0	    0		 +1.230081e-02
0.8833550811477294
﻿************ best: 8.833551e-01	 ¬_domestic_association_football_leagues
﻿
Specialization, covering P:102 N:0 U:13
¬_domestic_association_football_leagues


Disjunct, covering P:102 N:0 U:13
¬_domestic_association_football_leagues

﻿
 FINAL: ¬_domestic_association_football_leagues

induced for target #0:

yagoGeoEntity 


﻿

 |||||||||||||||||||||||||||||||||||||||||||||||||||||||||| OUTCOMES FOLD #9
Algorithm: class it.uniba.di.lacam.ml.dlfoil.CEClassificationModel2

  TargetC#   matching commission   omission  induction  precision     recall
﻿        0.      0.647      0.000      0.353      0.000      1.000      1.000
----------------------------------------------------------------------------------------------
﻿  AVERAGES      0.647      0.000      0.353      0.000      1.000      1.000



 @@@@@@@@@@@@@@@@@@@@@@@@@@@@@@@@@@@@@@@@@@@@@@@@@@@@@@@@@@@@@@@ OVERALL OUTCOMES

  TargetC#   matching commission   omission  induction  precision     recall
﻿         0      0.660      0.000      0.340      0.000      1.000      1.000 
----------------------------------------------------------------------------------------------
﻿  AVERAGES ﻿     0.660      0.000      0.340      0.000      1.000      1.000 	 F-measure:      1.000
﻿

END: file:////C:/Users/Giuseppe/Documents/yago.owl﻿	 Seed: 1