SLF4J: Failed to load class "org.slf4j.impl.StaticLoggerBinder".﻿
﻿SLF4J: Defaulting to no-operation (NOP) logger implementation﻿
﻿SLF4J: See http://www.slf4j.org/codes.html#StaticLoggerBinder for further details.﻿
﻿INIT KB <<<<<<<<<<<<<<<<<<<<<<<<<<<<<<<<<<<<<<<<<<<<<<<<<<<<<<<<<<<<<<<<<<<<<<<<<<<<<<<<<<<<
﻿file:////C:/Users/Giuseppe/Desktop/yago5.owl
﻿WARNING: An illegal reflective access operation has occurred
WARNING: Illegal reflective access by com.google.inject.internal.cglib.core.$ReflectUtils$2 (file:/C:/Users/Giuseppe/.m2/repository/com/google/inject/guice/4.0/guice-4.0.jar) to method java.lang.ClassLoader.defineClass(java.lang.String,byte[],int,int,java.security.ProtectionDomain)
WARNING: Please consider reporting this to the maintainers of com.google.inject.internal.cglib.core.$ReflectUtils$2
WARNING: Use --illegal-access=warn to enable warnings of further illegal reflective access operations
WARNING: All illegal access operations will be denied in a future release
﻿Consistency check: ﻿true

CLASSES
﻿---------------------------- 181﻿

OBJECT Props
﻿
﻿---------------------------- 139﻿

INDIVIDUALS

﻿---------------------------- 1452
﻿
DATA Props

﻿---------------------------- 0

CLASS DISJOINTNESS AXIOMS

﻿---------------------------- 5
﻿

KB LOADED. 


﻿[DLFoil]
﻿DLFoil
﻿Targets: [Acquirer109764201]
NrandConcepts: 1
﻿
--------------- creating GOLD STANDARD CLASSIFICATION ---------------
﻿
TARGET Concepts: ﻿1﻿
﻿PosExamples5
Counter exs:10
﻿Uncertain: 1427
﻿Examples from :     Thing 1452
﻿Negated Concept: Act100030358 or WikicatPeopleOfCalabrianDescent or WikicatPhotoArchives or Massachusetts or Minnesota or Nothing
﻿concept: ﻿Acquirer109764201	﻿     pos:5     neg:10   und:1437
﻿10-fold CROSS VALIDATION Experiment on ontology: file:////C:/Users/Giuseppe/Desktop/yago5.owl
﻿No of folds: 10
No of examples: 1452
No of places: 1460
No of examples per fold: 146
﻿

Fold #0 **************************************************************************************************
﻿#training examples 1306 - fold: 0

﻿--------- Target Concept #0 
Acquirer109764201﻿

Learning problem prepared.
﻿
 Problem	 p:5	 n:﻿8	 u:1293	
﻿Subproblem ------------------------------------------
﻿
Specializing ﻿⊤﻿
 5	 8	 1293
﻿   0. ∀ country.⊤﻿
	   5	    8	 1293		 +0.000000e+00
﻿   1﻿. WikicatUnitedStatesNavyOfficers
	   1	 ﻿ ﻿ ﻿ ﻿0﻿	 ﻿   0		 ﻿+1.495515e+00﻿ <--- current BEST﻿
﻿   2. ∀ caption.⊤﻿
	   5	 ﻿   8﻿	 1293		 ﻿+0.000000e+00﻿
﻿ ﻿ ﻿ ﻿3﻿. ﻿NewYork﻿
	﻿ ﻿ ﻿ ﻿1﻿	 ﻿   0	    0		 ﻿+1.495515e+00
﻿ ﻿ ﻿ ﻿4﻿. ﻿NewYork﻿
	﻿ ﻿ ﻿ ﻿1﻿	 ﻿ ﻿  0	 ﻿  ﻿ ﻿0﻿		 ﻿+1.495515e+00﻿
﻿   5. ﻿∀ musicComposer.⊤
	   5	    8	 1293		 +0.000000e+00
﻿   6. ∀ terrServ.⊤
	   5	    8	 1293		 ﻿+0.000000e+00
﻿ ﻿  7. WikicatTranscendentalMeditationPractitioners
	   1	    1	 ﻿   1		 ﻿+1.295515e+00
﻿   8. WikicatPeopleFromSuchaBeskidzka
	﻿   1	    0	 ﻿   0		 ﻿+1.495515e+00﻿
﻿   9. ∀ hometown.⊤﻿
	   5	    8	 1293		 +0.000000e+00
﻿  10. ∀ label.⊤
	   5	    8	 1293		 ﻿+0.000000e+00
﻿  11. WikicatTranscendentalMeditationPractitioners
	   1	    1	  ﻿  1		 +1.295515e+00
﻿  12. Michigan
	﻿   1	    0	 ﻿   0		 ﻿+1.495515e+00
﻿  13. ∀ citizenship.⊤
	   5	    8	 ﻿1293		 +0.000000e+00
﻿  14. ∀ knownFor.⊤
	   5	    8	 1293		 ﻿+0.000000e+00
﻿  15. WikicatPeopleFromNewYork
	   2	 ﻿   0	    4		 ﻿+2.562874e+00 <--- current BEST
﻿  16. ∀ studio.⊤
	   5	    8	 1293		 ﻿+0.000000e+00
﻿  17. ∀ rector.⊤
	﻿   5	    8	 1293		 +0.000000e+00
﻿ ﻿ 18. ∀ notableWorks.⊤
	   5	    8	 1293		 +0.000000e+00
﻿  19. WikicatPeopleFromNewYork
	   2	    0	 ﻿   4		 +2.562874e+00
************ best: 2.562874e+00	 WikicatPeopleFromNewYork﻿
﻿
Specialization, covering P:2 N:0 U:4
﻿WikicatPeopleFromNewYork


Specializing WikicatPeopleFromNewYork
 ﻿2	 0	 4
﻿   0. WikicatPeopleFromNewYork ⊓ (∀ citizenship.⊤)
	   2	    0	 ﻿   4		 +0.000000e+00
﻿   1. WikicatPeopleFromNewYork ⊓ (∀ locationCity.⊤)
	   2	    0	    4		 ﻿+0.000000e+00
﻿   2. WikicatPeopleFromNewYork ⊓ (∀ children.⊤)
	   2	    0	 ﻿   4		 +0.000000e+00
﻿   3. WikicatPeopleFromNewYork ⊓ (∀ broadcastNetwork.⊤)
	 ﻿  2	    0﻿	 ﻿ ﻿ ﻿ ﻿4﻿		 ﻿+0.000000e+00﻿
﻿ ﻿ ﻿ 4. WikicatPeopleFromNewYork ⊓ (∀ basedOn.⊤)
	﻿   2	    0	    4		 ﻿+0.000000e+00
﻿   ﻿5. WikicatPeopleFromNewYork ⊓ (∀ currency.⊤)
	   2	    0	    4		 ﻿+0.000000e+00
﻿   6. WikicatPeopleFromNewYork ⊓ (∀ child.⊤)
	   2	    0	    4		 ﻿+0.000000e+00
﻿   7. WikicatPeopleFromNewYork ⊓ (∀ foundedBy.⊤)
	   2	    0	    4		 ﻿+0.000000e+00
﻿   8. WikicatPeopleFromNewYork ⊓ (∀ label.⊤)
	   2	 ﻿   0	    4		 ﻿+0.000000e+00
﻿ ﻿ ﻿ ﻿9﻿. ﻿WikicatPeopleFromNewYork ⊓ (∀ owningCompany.⊤)﻿
	﻿ ﻿ ﻿ ﻿2﻿	 ﻿   0	    4		 ﻿+0.000000e+00
﻿  10. WikicatPeopleFromNewYork ⊓ (∀ agent.⊤)
	   2	    0	    4		 ﻿+0.000000e+00
﻿ ﻿ ﻿11﻿. ﻿WikicatPeopleFromNewYork ⊓ (∀ birthPlace.⊤)
	   2	    0	    4		 ﻿+0.000000e+00
﻿  12. WikicatPeopleFromNewYork ⊓ (∀ writer.⊤)
	   2	 ﻿ ﻿ ﻿ ﻿0﻿	 ﻿ ﻿ ﻿ ﻿4﻿		 ﻿+0.000000e+00﻿
﻿  13. WikicatPeopleFromNewYork ⊓ (∃ almaMater.⊤)
	   1	    0	    0		 ﻿+5.351947e-01 <--- current BEST
﻿  14. WikicatPeopleFromNewYork ⊓ (∀ parent.⊤)
	   2	    0	    4		 ﻿+0.000000e+00
﻿ ﻿ ﻿15﻿. ﻿WikicatPeopleFromNewYork ⊓ (∀ part.⊤)﻿
	﻿ ﻿ ﻿ ﻿2﻿	    0	    4		 ﻿+0.000000e+00
﻿  16. WikicatPeopleFromNewYork ⊓ (∀ callingCode.⊤)
	   2	    0	    4		 ﻿+0.000000e+00
﻿ ﻿ ﻿17﻿. ﻿WikicatPeopleFromNewYork ⊓ (∃ spouse.⊤)﻿
	﻿ ﻿ ﻿ ﻿1﻿	 ﻿ ﻿ ﻿ ﻿0﻿	 ﻿ ﻿ ﻿ ﻿3﻿		 ﻿-1.257694e-01﻿
﻿  18. WikicatPeopleFromNewYork ⊓ (¬Minnesota)
	   2	    0	    0		 ﻿+1.222392e+00 <--- current BEST
﻿  19. WikicatPeopleFromNewYork ⊓ (∀ associatedMusicalArtist.⊤)
	   2	    0	    4		 ﻿+0.000000e+00
************ best: ﻿1.222392e+00	 ﻿WikicatPeopleFromNewYork ⊓ (¬Minnesota)
﻿
Specialization, covering P:2 N:0 U:0
﻿WikicatPeopleFromNewYork ⊓ (¬Minnesota)

﻿
Disjunct, covering P:2 N:0 U:0
﻿WikicatPeopleFromNewYork ⊓ (¬Minnesota)

﻿Subproblem ------------------------------------------
﻿
Specializing ﻿⊤﻿
 ﻿3﻿	 ﻿8﻿	 ﻿1293﻿
﻿   0. ∀ honorificSuffix.⊤
	   3	    8	 1293		 ﻿+0.000000e+00
﻿   1. WikicatUnitedStatesNavyOfficers
	   1﻿	   ﻿ 0	   ﻿ ﻿0		 ﻿+2.709147e+00﻿ <--- current BEST
﻿   2. ∀ cinematography.⊤
	   3	    8	 ﻿1293		 +0.000000e+00
﻿   3. ∀ terrServ.⊤
	   3	    8	 1293		 ﻿+0.000000e+00
﻿   4. ∀ birthPlace.⊤
	   3	    8	 1293		 ﻿+0.000000e+00
﻿   5. ¬WikicatPeopleOfCalabrianDescent
	   3	    0	    0		 ﻿+8.349834e+00 <--- current BEST
﻿   6. ∃ deathPlace.⊤
	   3	    0	   26		 ﻿+5.442943e+00
﻿   7. ∀ deputy.⊤
	   3	 ﻿   8	 1293		 +0.000000e+00
﻿   8. ∀ terrServ.⊤
	   3	    8	 1293		 ﻿+0.000000e+00
﻿   9. Actor109765278
	   2	    2	   59		 ﻿+2.576272e+00
﻿  10. WikicatPhillipsAcademyAlumni
	   1	    0	    0		 ﻿+2.709147e+00
﻿  11. ∀ distributor.⊤
	   3	    8	 1293		 ﻿+0.000000e+00
﻿  12. ∀ influenced.⊤
	   3	    8	 ﻿1293		 +0.000000e+00
﻿  13. ¬Act100030358
	   3	    0	    0		 ﻿+8.349834e+00
﻿  14. ∀ part.⊤
	   3	    8	 1293		 ﻿+0.000000e+00
﻿  15. ∀ honorificSuffix.⊤
	   3	    8	 1293		 ﻿+0.000000e+00
﻿  16. Person
	   3	    2	  145		 ﻿+3.111429e+00
﻿  17. WikicatPeopleFromSuchaBeskidzka
	   1	    0	    0		 ﻿+2.709147e+00
﻿  18. WikicatUnitedStatesArmyAirForcesSoldiers
	   1	    0	    0		 ﻿+2.709147e+00
﻿  19. ∀ location.⊤
	   3	 ﻿   8	 1293		 +0.000000e+00
************ best: 8.349834e+00	 ¬WikicatPeopleOfCalabrianDescent
﻿
Specialization, covering P:3 N:0 U:0
﻿¬WikicatPeopleOfCalabrianDescent


Disjunct, covering P:3 N:0 U:0
¬WikicatPeopleOfCalabrianDescent

﻿
 FINAL: (WikicatPeopleFromNewYork ⊓ (¬Minnesota)) ⊔ (¬WikicatPeopleOfCalabrianDescent)

induced for target #﻿0:

Acquirer109764201 


﻿

 |||||||||||||||||||||||||||||||||||||||||||||||||||||||||| OUTCOMES FOLD #0
Algorithm: class it.uniba.di.lacam.ml.dlfoil.CEClassificationModel
﻿
  TargetC#   matching commission   omission  induction  precision     recall
        0.      0.986      0.000      0.014      0.000      1.000      1.000
----------------------------------------------------------------------------------------------
﻿  AVERAGES﻿      0.986 ﻿     0.000 ﻿     0.014 ﻿     0.000 ﻿     1.000 ﻿     1.000
﻿

Fold #1 **************************************************************************************************
﻿#training examples 1306 - fold: 1

﻿--------- Target Concept #0 
Acquirer109764201﻿

Learning problem prepared.
﻿
 Problem	 p:4	 n:10	 u:1292	
Subproblem ------------------------------------------

Specializing ⊤
 4	 10	 1292
﻿   0. Absentee109757653
	   1	    0	    4		 ﻿+1.545530e+00 <--- current BEST
﻿   1. ∀ event.⊤
	   4	   10	 1292		 ﻿+0.000000e+00
﻿   2. WikicatUnitedStatesNavyOfficers
	   1	    0	    0		 ﻿+1.941770e+00 <--- current BEST
﻿   3. Illinois
	   1	    0	    0		 ﻿+1.941770e+00
﻿   4. ∃ wikiPageExternalLink.⊤
	   3	    3	   79		 ﻿+2.672406e+00 <--- current BEST
﻿   5. WikicatPeopleFromTheBronx
	   1	    0	    1		 ﻿+1.795530e+00
﻿   6. WikicatPhillipsAcademyAlumni
	   1	    0	    0		 ﻿+1.941770e+00
﻿   7. WikicatPeopleFromNewYork
	   1	    0	    5		 ﻿+1.489932e+00
﻿   8. ∀ musicComposer.⊤
	   4	   10	 1292		 ﻿+0.000000e+00
﻿   9. WikicatStageActors
	   1	    0	    3		 ﻿+1.611288e+00
﻿  10. WikicatPeopleFromNewYork
	   1	    0	    5		 ﻿+1.489932e+00
﻿  11. Person
	   4	    2	  141		 ﻿+3.142590e+00 <--- current BEST
﻿  12. ∃ thumbnail.⊤
	   3	    3	   76		 ﻿+2.710825e+00
﻿  13. ∀ religion.⊤
	   4	   10	 1292		 ﻿+0.000000e+00
﻿  14. ∀ almaMater.⊤
	   4	   10	 1292		 ﻿+0.000000e+00
﻿  15. Michigan
	   1	    0	    0		 ﻿+1.941770e+00
﻿  16. ∀ soundRecording.⊤
	   4	   10	 1292		 ﻿+0.000000e+00
﻿  17. ∀ story.⊤
	   4	   10	 1292		 ﻿+0.000000e+00
﻿  18. Actor109765278
	   3	    2	   60		 ﻿+2.958809e+00
﻿  19. WikicatUnitedStatesNavyOfficers
	   1	    0	    0		 ﻿+1.941770e+00
************ best: 3.142590e+00	 Person
﻿
Specialization, covering P:4 N:2 U:141
Person

﻿
Specializing Person
 4	 2	 141
﻿   0. Person ⊓ (∃ hometown.⊤)
	   1	    0	   11		 ﻿+4.810128e-01 <--- current BEST
﻿   1. Person ⊓ (∀ parents.⊤)
	   4	    2	  141		 ﻿+0.000000e+00
﻿   2. Person ⊓ (∀ subsidiary.⊤)
	   4	    2	  141		 ﻿+0.000000e+00
﻿   3. Person ⊓ (∀ story.⊤)
	   4	    2	  141		 ﻿+0.000000e+00
﻿   4. Person ⊓ (∀ stateOfOrigin.⊤)
	   4	    2	  141		 ﻿+0.000000e+00
﻿   5. Person ⊓ (∀ restingPlace.⊤)
	   4	    2	  141		 ﻿+0.000000e+00
﻿   6. Person ⊓ (∀ notableWorks.⊤)
	   4	    2	  141		 ﻿+0.000000e+00
﻿   7. WikicatPeopleFromTheBronx ⊓ Person
	   1	    0	    1		 ﻿+1.009882e+00 <--- current BEST
﻿   8. Person ⊓ (∀ legislature.⊤)
	   4	    2	  141		 +0.000000e+00
﻿   9. Person ⊓ (¬Minnesota)
	﻿   4	    0	    0		 ﻿+4.887525e+00 <--- current BEST
﻿  10. Person ⊓ (∀ titleLeader.⊤)
	   4	    2	  141		 ﻿+0.000000e+00
﻿  11. Person ⊓ (∃ party.⊤)
	   1	    0	    2		 ﻿+9.061227e-01
﻿  12. Person ⊓ (∀ spouse.⊤)
	   4	    2	  141		 ﻿+0.000000e+00
﻿  13. Person ⊓ (∀ birthPlace.⊤)
	   4	    2	  141		 ﻿+0.000000e+00
﻿  14. Person ⊓ (∀ headquarter.⊤)
	   4	    2	  141		 ﻿+0.000000e+00
﻿  15. Person ⊓ (∀ locationCountry.⊤)
	   4	    2	  141		 ﻿+0.000000e+00
﻿  16. Person ⊓ (∀ collaborator.⊤)
	   4	    2	  141		 ﻿+0.000000e+00
﻿  17. Person ⊓ (∀ logo.⊤)
	   4	    2	  141		 ﻿+0.000000e+00
﻿  18. Person ⊓ (∀ hometown.⊤)
	   4	    2	  141		 ﻿+0.000000e+00
﻿  19. Person ⊓ (¬WikicatPhotoArchives)
	   4	    0	    0		 ﻿+4.887525e+00
************ best: 4.887525e+00	 Person ⊓ (¬Minnesota)
﻿
Specialization, covering P:4 N:0 U:0
Person ⊓ (¬Minnesota)

﻿
Disjunct, covering P:4 N:0 U:0
Person ⊓ (¬Minnesota)

﻿
 FINAL: Person ⊓ (¬Minnesota)

induced for target #0:

Acquirer109764201 


﻿

 |||||||||||||||||||||||||||||||||||||||||||||||||||||||||| OUTCOMES FOLD #1
Algorithm: class it.uniba.di.lacam.ml.dlfoil.CEClassificationModel
﻿
  TargetC#   matching commission   omission  induction  precision     recall
        0.      1.000      0.000      0.000      0.000      1.000      1.000
----------------------------------------------------------------------------------------------
  AVERAGES      1.000      0.000      0.000      0.000      1.000      1.000


Fold #2 **************************************************************************************************
#training examples 1306 - fold: 2

--------- Target Concept #0 
Acquirer109764201﻿

Learning problem prepared.
﻿
 Problem	 p:4	 n:8	 u:1294	
Subproblem ------------------------------------------

Specializing ⊤
 4	 8	 1294
﻿   0. NewYork
	   1	    0	    0		 ﻿+1.941770e+00 <--- current BEST
﻿   1. ∀ productionCompanies.⊤
	   4	    8	 1294		 ﻿+0.000000e+00
﻿   2. WikicatPeopleFromNewYork
	   2	    0	    5		 ﻿+3.252023e+00 <--- current BEST
﻿   3. ∀ notableWorks.⊤
	   4	    8	 1294		 ﻿+0.000000e+00
﻿   4. ∀ after.⊤
	   4	    8	 1294		 ﻿+0.000000e+00
﻿   5. ∀ influenced.⊤
	   4	    8	 1294		 ﻿+0.000000e+00
﻿   6. ∃ party.⊤
	   1	    0	    3		 ﻿+1.611288e+00
﻿   7. ∀ wikiPageExternalLink.⊤
	   4	    8	 1294		 ﻿+0.000000e+00
﻿   8. WikicatUnitedStatesNavyOfficers
	   1	    0	    0		 ﻿+1.941770e+00
﻿   9. ∀ collaborator.⊤
	   4	    8	 1294		 ﻿+0.000000e+00
﻿  10. ∀ spouse.⊤
	   4	    8	 1294		 ﻿+0.000000e+00
﻿  11. Person
	   4	    2	  150		 ﻿+3.057423e+00
﻿  12. WikicatUnitedStatesArmyAirForcesSoldiers
	   1	    0	    0		 ﻿+1.941770e+00
﻿  13. WikicatPeopleFromNewYork
	   2	    0	    5		 ﻿+3.252023e+00
﻿  14. NewYork
	   1	    0	    0		 ﻿+1.941770e+00
﻿  15. ∀ nationality.⊤
	   4	    8	 1294		 ﻿+0.000000e+00
﻿  16. ¬Act100030358
	   4	    0	    0		 ﻿+8.030115e+00 <--- current BEST
﻿  17. ∀ source.⊤
	   4	    8	 1294		 ﻿+0.000000e+00
﻿  18. WikicatStageActors
	   1	    0	    2		 ﻿+1.691770e+00
﻿  19. WikicatPeopleFromNewYork
	   2	    0	    5		 ﻿+3.252023e+00
************ best: ﻿8.030115e+00	 ¬Act100030358
﻿
Specialization, covering P:4 N:0 U:0
¬Act100030358

﻿
Disjunct, covering P:4 N:0 U:0
¬Act100030358

﻿
 FINAL: ¬Act100030358

induced for target #0:

Acquirer109764201 


﻿

 |||||||||||||||||||||||||||||||||||||||||||||||||||||||||| OUTCOMES FOLD #2
Algorithm: class it.uniba.di.lacam.ml.dlfoil.CEClassificationModel
﻿
  TargetC#   matching commission   omission  induction  precision     recall
﻿        0. ﻿     0.993      0.000      0.007      0.000      1.000      1.000
----------------------------------------------------------------------------------------------
﻿  AVERAGES      0.993      0.000      0.007      0.000      1.000      1.000


Fold #3 **************************************************************************************************
#training examples 1306 - fold: 3

﻿--------- Target Concept #0 
Acquirer109764201﻿

Learning problem prepared.
﻿
 Problem	 p:5	 n:9	 u:1292	
Subproblem ------------------------------------------

Specializing ⊤
 5	 9	 1292
﻿   0. ∃ almaMater.⊤
	   2	    0	    7		 ﻿+2.357045e+00 <--- current BEST
﻿   1. ∀ residence.⊤
	   5	    9	 1292		 ﻿+0.000000e+00
﻿   2. WikicatStageActors
	   1	    0	    3		 ﻿+1.231129e+00
﻿   3. ∀ stateOfOrigin.⊤
	   5	    9	 1292		 ﻿+0.000000e+00
﻿   4. ∃ restingPlace.⊤
	   2	    0	    2		 ﻿+2.757045e+00 <--- current BEST
﻿   5. ∀ legislature.⊤
	   5	    9	 1292		 ﻿+0.000000e+00
﻿   6. ∀ education.⊤
	   5	    9	 1292		 ﻿+0.000000e+00
﻿   7. WikicatPhillipsAcademyAlumni
	   1	    0	    0		 ﻿+1.495515e+00
﻿   8. WikicatStageActors
	   1	    0	    3		 ﻿+1.231129e+00
﻿   9. ∀ parent.⊤
	   5	    9	 1292		 ﻿+0.000000e+00
﻿  10. ∃ deathPlace.⊤
	   3	    0	   25		 ﻿+2.905191e+00 <--- current BEST
﻿  11. ∀ before.⊤
	   5	    9	 1292		 ﻿+0.000000e+00
﻿  12. ∀ timeZoneDst.⊤
	   5	    9	 1292		 ﻿+0.000000e+00
﻿  13. ∀ parent.⊤
	   5	  ﻿  9	 1292		 +0.000000e+00
﻿  14. WikicatPeopleFromTheBronx
	   1	    0	    1		 ﻿+1.378522e+00
﻿  15. ∀ honorificSuffix.⊤
	   5	    9	 1292		 ﻿+0.000000e+00
﻿  16. WikicatPeopleFromNewYork
	   2	    0	    4		 ﻿+2.562874e+00
﻿  17. ∀ affiliation.⊤
	   5	    9	 1292		 ﻿+0.000000e+00
﻿  18. ∀ productionCompanies.⊤
	   5	    9	 1292		 ﻿+0.000000e+00
﻿  19. ∀ stateOfOrigin.⊤
	   5	    9	 1292		 ﻿+0.000000e+00
************ best: 2.905191e+00	 ∃ deathPlace.⊤
﻿
Specialization, covering P:3 N:0 U:25
﻿∃ deathPlace.⊤


Specializing ∃ deathPlace.⊤
 3	 0	 25
﻿   0. ∃ deathPlace.(∀ award.⊤)
	   3	    0	   25		 ﻿+0.000000e+00
﻿   1. ∃ deathPlace.(∀ terrServ.⊤)
	   3	    0	   25		 ﻿+0.000000e+00
﻿   2. ∃ deathPlace.(∀ wikiPageExternalLink.⊤)
	   3	    0	   25		 ﻿+0.000000e+00
﻿ ﻿  3. (∃ deathPlace.⊤) ⊓ (∀ ethnicGroup.⊤)
	   3	    0	   25		 +0.000000e+00
﻿   4. (∃ deathPlace.⊤) ⊓ (∀ caption.⊤)
	   3	    0	   25		 ﻿+0.000000e+00
﻿   5. ﻿(∃ deathPlace.⊤) ⊓ (∀ satServ.⊤)
	   3	    0	   25		 +0.000000e+00
﻿   6. (∃ deathPlace.⊤) ⊓ (∀ foundationPlace.⊤)
	   3	    0	   25		 ﻿+0.000000e+00
﻿   7. ∃ deathPlace.(∀ basedOn.⊤)
	   3	    0	   25		 ﻿+0.000000e+00
﻿   8. (∃ deathPlace.⊤) ⊓ (∀ foundationPlace.⊤)
	   3	    0	   25		 ﻿+0.000000e+00
﻿   9. (∃ deathPlace.⊤) ⊓ (∀ deathPlace.⊤)
	   3	    0	   25		 ﻿+0.000000e+00
﻿  10. ∃ deathPlace.(∀ caption.⊤)
	   3	    0	   25		 ﻿+0.000000e+00
﻿  11. (∃ deathPlace.⊤) ⊓ (∀ location.⊤)
	   3	    0	   25		 ﻿+0.000000e+00
﻿  12. (∃ deathPlace.⊤) ⊓ (∀ establishedEvent.⊤)
	   3	    0	   25		 ﻿+0.000000e+00
﻿  13. (∃ deathPlace.⊤) ⊓ (∀ isPartOf.⊤)
	   3	    0	   25		 ﻿+0.000000e+00
﻿  14. ∃ deathPlace.(∀ language.⊤)
	   3	    0	   25		 ﻿+0.000000e+00
﻿  15. ∃ deathPlace.(∀ before.⊤)﻿
	   3	    0	   25		 +0.000000e+00
﻿  16. (∃ deathPlace.⊤) ⊓ (∀ award.⊤)
	   3	    0	   25		 ﻿+0.000000e+00
﻿  17. (∃ deathPlace.⊤) ⊓ (∀ presenter.⊤)
	   3	    0	   25		 ﻿+0.000000e+00
﻿  18. (∃ deathPlace.⊤) ⊓ (∀ location.⊤)
	   3	    0	   25		 ﻿+0.000000e+00
﻿  19. Massachusetts ⊓ (∃ deathPlace.⊤)
	   1	    0	    0		 ﻿+8.785295e-01 <--- current BEST
************ best: 8.785295e-01	 Massachusetts ⊓ (∃ deathPlace.⊤)
﻿
Specialization, covering P:1 N:0 U:0
﻿Massachusetts ⊓ (∃ deathPlace.⊤)


Disjunct, covering P:1 N:0 U:0
Massachusetts ⊓ (∃ deathPlace.⊤)

﻿Subproblem ------------------------------------------

Specializing ⊤
 4	 9	 1292
﻿   0. ∀ stateOfOrigin.⊤
	   4	    9	 1292		 ﻿+0.000000e+00
﻿   1. ∃ wikiPageExternalLink.⊤
	   3	    3	   75		 ﻿+2.723113e+00 <--- current BEST
﻿   2. WikicatMusicVideoDirectors
	   1	    0	    1		 ﻿+1.795254e+00
﻿   3. ∀ affiliation.⊤
	   4	    9	 1292		 ﻿+0.000000e+00
﻿   4. WikicatTranscendentalMeditationPractitioners
	   1	    1	    1		 ﻿+1.691494e+00
﻿   5. ∀ capital.⊤
	   4	  ﻿  9	 1292		 +0.000000e+00
﻿   6. ∀ product.⊤
	   4	    9	 1292		 ﻿+0.000000e+00
﻿   7. ∀ establishedEvent.⊤
	   4	    9	 1292		 ﻿+0.000000e+00
﻿   8. Illinois
	   1	    0	    0		 ﻿+1.941494e+00
﻿   9. Absentee109757653
	   1	    0	    4		 ﻿+1.545254e+00
﻿  10. ∀ spouse.⊤
	   4	    9	 1292		 ﻿+0.000000e+00
﻿  11. Illinois
	   1	    0	    0		 ﻿+1.941494e+00
﻿  12. ∀ product.⊤
	   4	    9	 1292		 ﻿+0.000000e+00
﻿  13. WikicatTranscendentalMeditationPractitioners
	   1	    1	    1		 ﻿+1.691494e+00
﻿  14. ∀ child.⊤
	   4	    9	 1292		 ﻿+0.000000e+00
﻿  15. ∀ hypernym.⊤
	   4	    9	 1292		 ﻿+0.000000e+00
﻿  16. WikicatMusicVideoDirectors
	   1	    0	    1		 ﻿+1.795254e+00
﻿  17. ∃ parent.⊤
	   1	    1	    6		 ﻿+1.399013e+00
﻿  18. Illinois
	   1	  ﻿  0	    0		 ﻿+1.941494e+00
﻿  19. WikicatPeopleFromTheBronx
	   1	    0	    1		 ﻿+1.795254e+00
﻿************ best: ﻿2.723113e+00	 ∃ wikiPageExternalLink.⊤
﻿
Specialization, covering P:3 N:3 U:75
∃ wikiPageExternalLink.⊤

﻿
Specializing ∃ wikiPageExternalLink.⊤
 3	 3	 75
﻿   0. ∃ wikiPageExternalLink.(∀ broadcastNetwork.⊤)
	   3	    3	   75		 ﻿+0.000000e+00
﻿   1. (∃ wikiPageExternalLink.⊤) ⊓ (∀ productionCompanies.⊤)
	   3	    3	   75		 ﻿+0.000000e+00
﻿   2. (∃ wikiPageExternalLink.⊤) ⊓ (∀ cctld.⊤)
	   3	    3	   75		 ﻿+0.000000e+00
﻿   3. (∃ deathPlace.⊤) ⊓ (∃ wikiPageExternalLink.⊤)
	   2	    0	   18		 ﻿+9.865385e-01 <--- current BEST
﻿   4. ∃ wikiPageExternalLink.(∀ story.⊤)
	   3	    3	   75		 ﻿+0.000000e+00
﻿   5. (∃ wikiPageExternalLink.⊤) ⊓ (∀ studio.⊤)
	   3	    3	   75		 ﻿+0.000000e+00
﻿   6. (¬WikicatPhotoArchives) ⊓ (∃ wikiPageExternalLink.⊤)
	   3	    0	    0		 ﻿+4.357552e+00 <--- current BEST
﻿   7. (∃ wikiPageExternalLink.⊤) ⊓ (∀ label.⊤)
	   3	    3	   75		 ﻿+0.000000e+00
﻿   8. (∃ wikiPageExternalLink.⊤) ⊓ (∀ url.⊤)
	   3	    3	   75		 ﻿+0.000000e+00
﻿   9. (∃ wikiPageExternalLink.⊤) ⊓ (∀ award.⊤)
	   3	    3	   75		 ﻿+0.000000e+00
﻿  10. (∃ wikiPageExternalLink.⊤) ⊓ (∀ locationCountry.⊤)
	   3	    3	   75		 ﻿+0.000000e+00
﻿  11. ∃ wikiPageExternalLink.(∀ foundationPlace.⊤)
	   3	    3	   75		 ﻿+0.000000e+00
﻿ ﻿ 12. (∃ wikiPageExternalLink.⊤) ⊓ (∀ event.⊤)
	   3	    3	   75		 ﻿+0.000000e+00﻿
﻿  13. (∃ wikiPageExternalLink.⊤) ⊓ (∀ notableWorks.⊤)
	   3	    3	   75		 ﻿+0.000000e+00
﻿  14. ∃ wikiPageExternalLink.(∀ works.⊤)
	   3	    3	   75		 ﻿+0.000000e+00
﻿  15. (∃ wikiPageExternalLink.⊤) ⊓ (∀ content.⊤)
	   3	    3	   75		 ﻿+0.000000e+00
﻿  16. ∃ wikiPageExternalLink.(∀ product.⊤)
	   3	    3	   75		 ﻿+0.000000e+00
﻿  17. ∃ wikiPageExternalLink.(∀ religion.⊤)
	   3	    3	   75		 ﻿+0.000000e+00
﻿  18. ∃ wikiPageExternalLink.(∀ almaMater.⊤)
	   3	    3	   75		 ﻿+0.000000e+00
﻿  19. Absentee109757653 ⊓ (∃ wikiPageExternalLink.⊤)
	   1	    0	    3		 ﻿+9.377438e-01
************ best: 4.357552e+00	 (¬WikicatPhotoArchives) ⊓ (∃ wikiPageExternalLink.⊤)
﻿
Specialization, covering P:3 N:0 U:0
﻿(¬WikicatPhotoArchives) ⊓ (∃ wikiPageExternalLink.⊤)


Disjunct, covering P:3 N:0 U:0
﻿(¬WikicatPhotoArchives) ⊓ (∃ wikiPageExternalLink.⊤)

﻿Subproblem ------------------------------------------

Specializing ⊤
 1	 9	 1292
﻿   0. ∀ wasDerivedFrom.⊤
	   1	    9	 1292		 ﻿+0.000000e+00
﻿   1. ∀ education.⊤
	   1	    9﻿	 1292		 +0.000000e+00
﻿   2. Actor109765278
	   1	    2	   57		 ﻿+4.416884e+00 <--- current BEST
﻿   3. ∀ parent.⊤
	   1	    9	 1292		 ﻿+0.000000e+00
﻿   4. ∀ owningCompany.⊤
	   1	    9	 1292		 ﻿+0.000000e+00
﻿   5. ∀ owner.⊤
	   1	    9﻿	 1292		 +0.000000e+00
﻿   6. ∀ location.⊤
	   1	    9	 1292		 ﻿+0.000000e+00
﻿   7. ¬WikicatPeopleOfCalabrianDescent
	   1	    0	    0		 ﻿+9.347621e+00 <--- current BEST
﻿   8. ∀ distributor.⊤
	   1	    9	 1292		 ﻿+0.000000e+00
﻿   9. ∀ industry.⊤
	   1	    9	 1292		 ﻿+0.000000e+00
﻿  10. ∀ thumbnail.⊤
	   1	    9	 1292		 ﻿+0.000000e+00
﻿  11. ∀ location.⊤
	   1	    9	 1292		 ﻿+0.000000e+00
﻿  12. ¬Act100030358
	   1	    0	    0		 ﻿+9.347621e+00
﻿  13. ∀ thumbnail.⊤
	   1	    9	 1292		 ﻿+0.000000e+00
﻿  14. ∀ seeAlso.⊤
	   1	    9	 1292		 ﻿+0.000000e+00
﻿  15. ∀ parent.⊤
	   1	    9	 1292		 ﻿+0.000000e+00
﻿  16. Actor109765278
	   1	    2	   57		 ﻿+4.416884e+00
﻿  17. ¬Act100030358
	   1	    0	    0		 ﻿+9.347621e+00
﻿  18. ∀ logo.⊤
	   1	    9	 1292		 ﻿+0.000000e+00
﻿  19. WikicatPeopleFromTheBronx
	   1	    0	    1		 ﻿+8.762659e+00
************ best: 9.347621e+00	 ¬WikicatPeopleOfCalabrianDescent
﻿
Specialization, covering P:1 N:0 U:0
¬WikicatPeopleOfCalabrianDescent


Disjunct, covering P:1 N:0 U:0
¬WikicatPeopleOfCalabrianDescent

﻿
 FINAL: (Massachusetts ⊓ (∃ deathPlace.⊤)) ⊔ ((¬WikicatPhotoArchives) ⊓ (∃ wikiPageExternalLink.⊤)) ⊔ (¬WikicatPeopleOfCalabrianDescent)

﻿induced for target #0:

Acquirer109764201 


﻿

 |||||||||||||||||||||||||||||||||||||||||||||||||||||||||| OUTCOMES FOLD #3
Algorithm: class it.uniba.di.lacam.ml.dlfoil.CEClassificationModel

  TargetC#   matching commission   omission  induction  precision     recall
﻿        0.      0.993      0.000      0.007      0.000      1.000      1.000
----------------------------------------------------------------------------------------------
  AVERAGES      0.993      0.000      0.007      0.000      1.000 ﻿     1.000


Fold #4 **************************************************************************************************
#training examples 1306 - fold: 4

﻿--------- Target Concept #0 
Acquirer109764201﻿

Learning problem prepared.

 Problem	 p:5	 n:10	 u:1291	
Subproblem ------------------------------------------
﻿
Specializing ⊤
 5	 10	 1291
﻿   0. ∀ parentCompany.⊤
	   5	   10	 1291		 ﻿+0.000000e+00
﻿   1. ∀ associatedBand.⊤
	   5	   10	 1291		 +0.000000e+00
﻿   2. WikicatPeopleFromTheBronx
	   1	    0	    0		 ﻿+1.495515e+00 <--- current BEST
﻿   3. ∀ locationCountry.⊤
	   5	   10	 1291		 +0.000000e+00
﻿   4. WikicatTranscendentalMeditationPractitioners
	   1	    1	    0		 ﻿+1.378522e+00
﻿   5. WikicatStageActors
	   1	    0	    3		 ﻿+1.231129e+00
﻿   6. ∀ caption.⊤
	   5	   10	 1291		 +0.000000e+00
﻿   7. WikicatPeopleFromTheBronx
	   1	    0	    0		 ﻿+1.495515e+00
﻿   8. Absentee109757653
	   1	    0	    6		 ﻿+1.095515e+00
﻿   9. ∀ source.⊤
	   5	   10	 1291		 ﻿+0.000000e+00
﻿  10. ∀ broadcastNetwork.⊤
	   5	   10	 1291		 ﻿+0.000000e+00
﻿  11. ¬Massachusetts
	   5	    0	    0		 +7.767081e+00 <--- current BEST
﻿  12. ∀ children.⊤
	   5	   10	 1291		 ﻿+0.000000e+00
﻿  13. ∃ parent.⊤
	   1	    1	    4		 ﻿+1.134044e+00
﻿  14. ∀ adslServ.⊤
	   5	   10	 1291		 ﻿+0.000000e+00
﻿  15. Michigan
	   1	    0	    0		 ﻿+1.495515e+00
﻿  16. ∀ residence.⊤
	   5	   10	 1291		 +0.000000e+00
﻿  17. WikicatStageActors
	   1	    0	    3		 ﻿+1.231129e+00
﻿  18. Actor109765278
	   4	    2	   56		 ﻿+3.268206e+00
﻿  19. WikicatTranscendentalMeditationPractitioners
	   1	    1	    0		 ﻿+1.378522e+00
************ best: 7.767081e+00	 ¬Massachusetts
﻿
Specialization, covering P:5 N:0 U:0
¬Massachusetts


Disjunct, covering P:5 N:0 U:0
¬Massachusetts

﻿
 FINAL: ¬Massachusetts

induced for target #0:

Acquirer109764201 


﻿

 |||||||||||||||||||||||||||||||||||||||||||||||||||||||||| OUTCOMES FOLD #4
Algorithm: class it.uniba.di.lacam.ml.dlfoil.CEClassificationModel

  TargetC#   matching commission   omission  induction  precision     recall
﻿        0.      1.000      0.000      0.000      0.000      1.000      1.000
----------------------------------------------------------------------------------------------
﻿  AVERAGES      1.000      0.000      0.000      0.000 ﻿     1.000      1.000


Fold #5 **************************************************************************************************
#training examples 1306 - fold: 5

﻿--------- Target Concept #0 
Acquirer109764201﻿

Learning problem prepared.

 Problem	 p:5	 n:9	 u:1292	
Subproblem ------------------------------------------
﻿
Specializing ⊤
 5	 9	 1292
﻿   0. ∀ callingCode.⊤
	   5	    9	 1292		 +0.000000e+00
﻿   1. Illinois
	   1	    0	    0		 ﻿+1.495515e+00 <--- current BEST
﻿   2. Illinois
	   1	    0	    0		 ﻿+1.495515e+00
﻿   3. WikicatTranscendentalMeditationPractitioners
	   1	    1	    1		 ﻿+1.295515e+00
﻿   4. WikicatPhillipsAcademyAlumni
	   1	    0	    0		 ﻿+1.495515e+00
﻿   5. Absentee109757653
	   1	    0	    5		 ﻿+1.134044e+00
﻿   6. Actor109765278
	   4	    1	   61		 ﻿+3.197158e+00 <--- current BEST
﻿   7. WikicatPeopleFromNewYork
	   2	    0	    5		 ﻿+2.485816e+00
﻿   8. Absentee109757653
	   1	    0	    5		 ﻿+1.134044e+00
﻿   9. Massachusetts
	   1	    0	    0		 ﻿+1.495515e+00
﻿  10. WikicatPeopleFromTheBronx
	   1	    0	    1		 ﻿+1.378522e+00
﻿  11. Illinois
	   1	    0	    0		 +1.495515e+00
﻿  12. WikicatTranscendentalMeditationPractitioners
	   1	    1	    1		 ﻿+1.295515e+00
﻿  13. ∀ spouse.⊤
	   5	    9	 1292		 +0.000000e+00
﻿  14. ∃ education.⊤
	   1	    0	    4		 ﻿+1.178522e+00
﻿  15. ∀ leader.⊤
	   5	    9	 1292		 ﻿+0.000000e+00
﻿  16. ∀ seeAlso.⊤
	   5	    9	 1292		 ﻿+0.000000e+00
﻿  17. WikicatPeopleFromTheBronx
	   1	    0	    1		 ﻿+1.378522e+00
﻿  18. WikicatMusicVideoDirectors
	   1	    0	    1		 ﻿+1.378522e+00
﻿  19. ∀ leader.⊤
	   5	    9	 1292		 ﻿+0.000000e+00
************ best: 3.197158e+00	 Actor109765278

Specialization, covering P:4 N:1 U:61
Actor109765278


Specializing Actor109765278
 4	 1	 61
﻿   0. Actor109765278 ⊓ (∀ works.⊤)
	   4	    1	   61		 ﻿+0.000000e+00
﻿   1. Actor109765278 ⊓ (∀ titleDeputy.⊤)
	   4	    1	   61		 ﻿+0.000000e+00
﻿   2. Actor109765278 ⊓ (∀ collaborator.⊤)
	   4	    1	 ﻿  61		 +0.000000e+00
﻿   3. Actor109765278 ⊓ (∀ spouse.⊤)
	   4	    1	   61		 ﻿+0.000000e+00
﻿   4. Actor109765278 ⊓ (∃ deathCause.⊤)
	   2	    0	    3		 ﻿+1.316565e+00 <--- current BEST
﻿   5. Actor109765278 ⊓ (∀ adslServ.⊤)
	   4	    1	   61		 ﻿+0.000000e+00
﻿   6. Actor109765278 ⊓ (∀ regionServed.⊤)
	   4	    1	   61﻿		 +0.000000e+00
﻿   7. Actor109765278 ⊓ (∀ recordLabel.⊤)
	   4	    1	   61		 ﻿+0.000000e+00
﻿   8. Actor109765278 ⊓ (∃ deathPlace.⊤)
	   2	    0	   14		 ﻿+5.653147e-01
﻿   9. Actor109765278 ⊓ (∀ religion.⊤)
	   4	    1	   61		 ﻿+0.000000e+00
﻿  10. Actor109765278 ⊓ (∀ birthPlace.⊤)
	   4	    1	   61		 ﻿+0.000000e+00
﻿  11. Actor109765278 ⊓ (∀ extra.⊤)
	   4	    1	   61		 ﻿+0.000000e+00
﻿  12. Actor109765278 ⊓ (∀ producer.⊤)
	   4	    1	   61		 ﻿+0.000000e+00
﻿  13. Actor109765278 ⊓ Michigan
	   1	    0	    0		 ﻿+8.702817e-01
﻿  14. Actor109765278 ⊓ (∀ service.⊤)
	   4	    1	   61		 ﻿+0.000000e+00
﻿  15. Actor109765278 ⊓ (∃ party.⊤)
	   1	    0	   ﻿ 2		 +6.202817e-01
﻿  16. Actor109765278 ⊓ (∀ occupation.⊤)
	   4	    1	   61		 ﻿+0.000000e+00
﻿  17. Actor109765278 ⊓ (∀ agent.⊤)
	   4	    1	   61		 ﻿+0.000000e+00
﻿  18. Actor109765278 ⊓ (∀ currentStatus.⊤)
	   4	    1	   61		 ﻿+0.000000e+00
﻿  19. Actor109765278 ⊓ (∀ owningCompany.⊤)
	   4	    1	   61		 +0.000000e+00
﻿************ best: 1.316565e+00	 Actor109765278 ⊓ (∃ deathCause.⊤)
﻿
Specialization, covering P:2 N:0 U:3
Actor109765278 ⊓ (∃ deathCause.⊤)

﻿
Specializing Actor109765278 ⊓ (∃ deathCause.⊤)
 2	 0	 3
﻿   0. Actor109765278 ⊓ ((¬WikicatPeopleOfCalabrianDescent) ⊓ (∃ deathCause.⊤))
	   2	    0	    0		 ﻿+1.000000e+00 <--- current BEST
﻿   1. (Actor109765278 ⊓ (∀ rev.⊤)) ⊓ (∃ deathCause.⊤)
	   2	    0	    3		 ﻿+0.000000e+00
﻿   2. (Actor109765278 ⊓ (∀ leaderName.⊤)) ⊓ (∃ deathCause.⊤)
	   2	    0	    3		 +0.000000e+00
﻿   3. (Actor109765278 ⊓ (∃ wasDerivedFrom.⊤)) ⊓ (∃ deathCause.⊤)
	   2	    0	    3		 ﻿+0.000000e+00
﻿   4. (Actor109765278 ⊓ (∀ owningCompany.⊤)) ⊓ (∃ deathCause.⊤)
	   2	    0	    3		 ﻿+0.000000e+00
﻿   5. (Actor109765278 ⊓ Illinois) ⊓ (∃ deathCause.⊤)
	   1	    0	    0		 ﻿+4.239985e-01
﻿   6. Actor109765278 ⊓ (∃ deathCause.(∀ musicComposer.⊤))
	   2	    0	    3		 ﻿+0.000000e+00
﻿   7. (Actor109765278 ⊓ (∀ product.⊤)) ⊓ (∃ deathCause.⊤)
	   2	    0	    3		 ﻿+0.000000e+00
﻿   8. (Actor109765278 ⊓ (∀ owningCompany.⊤)) ⊓ (∃ deathCause.⊤)
	   2	    0	    3		 ﻿+0.000000e+00
﻿   9. Actor109765278 ⊓ ((∃ deathCause.⊤) ⊓ (∀ relation.⊤))
	   2	    0	    3		 +0.000000e+00
﻿  10. Actor109765278 ⊓ ((¬Act100030358) ⊓ (∃ deathCause.⊤))
	   2	    0	    0		 ﻿+1.000000e+00
﻿  11. (Actor109765278 ⊓ (∀ parentCompany.⊤)) ⊓ (∃ deathCause.⊤)
	   2	    0	    3		 ﻿+0.000000e+00
﻿  12. (Actor109765278 ⊓ (∀ city.⊤)) ⊓ (∃ deathCause.⊤)
	   2	    0	    3		 ﻿+0.000000e+00
﻿  13. (Actor109765278 ⊓ (∃ child.⊤)) ⊓ (∃ deathCause.⊤)
	   2	    0	    0		 ﻿+1.000000e+00
﻿  14. Actor109765278 ⊓ ((∃ deathCause.⊤) ⊓ (∀ title.⊤))
	   2	    0	    3		 ﻿+0.000000e+00
﻿  15. Actor109765278 ⊓ ((∃ deathCause.⊤) ⊓ (∀ partner.⊤))
	   2	    0	    3		 ﻿+0.000000e+00
﻿  16. (Actor109765278 ⊓ (∀ eventEnd.⊤)) ⊓ (∃ deathCause.⊤)
	   2	    0	    3		 ﻿+0.000000e+00
﻿  17. (Actor109765278 ⊓ (∀ parent.⊤)) ⊓ (∃ deathCause.⊤)
	   2	    0	    3		 ﻿+0.000000e+00
﻿  18. (Actor109765278 ⊓ (∀ rector.⊤)) ⊓ (∃ deathCause.⊤)
	   2	    0	    3		 ﻿+0.000000e+00
﻿  19. (Actor109765278 ⊓ (∀ director.⊤)) ⊓ (∃ deathCause.⊤)
	   2	    0	    3		 ﻿+0.000000e+00
************ best: ﻿1.000000e+00	 Actor109765278 ⊓ ((¬WikicatPeopleOfCalabrianDescent) ⊓ (∃ deathCause.⊤))
﻿
Specialization, covering P:2 N:0 U:0
Actor109765278 ⊓ ((¬WikicatPeopleOfCalabrianDescent) ⊓ (∃ deathCause.⊤))


Disjunct, covering P:2 N:0 U:0
Actor109765278 ⊓ ((¬WikicatPeopleOfCalabrianDescent) ⊓ (∃ deathCause.⊤))

﻿Subproblem ------------------------------------------

Specializing ⊤
 3	 9	 1292
﻿   0. WikicatPeopleFromSuchaBeskidzka
	   1	    0	    0		 ﻿+2.709147e+00 <--- current BEST
﻿   1. WikicatPeopleFromSuchaBeskidzka
	   1	    0	    0		 ﻿+2.709147e+00
﻿   2. ¬Massachusetts
	   3	    0	    0		 ﻿+8.349834e+00 <--- current BEST
﻿   3. ∀ subdivisionType.⊤
	   3	    9	 1292		 ﻿+0.000000e+00
﻿   4. Person
	   3	    1	  149		 +3.083048e+00
﻿   5. WikicatPeopleFromSuchaBeskidzka
	   1	    0	    0		 ﻿+2.709147e+00
﻿   6. ∀ editing.⊤
	   3	    9	 1292		 ﻿+0.000000e+00
﻿   7. ∀ parents.⊤
	   3	    9	 1292		 +0.000000e+00
﻿   8. WikicatPeopleFromTheBronx
	   1	    0	    1		 ﻿+2.514160e+00
﻿   9. ∀ recordLabel.⊤
	   3	    9	 1292		 ﻿+0.000000e+00
﻿  10. NewYork
	   1	    0	    0		 ﻿+2.709147e+00
﻿  11. ∀ owningCompany.⊤
	   3	    9	 1292		 ﻿+0.000000e+00
﻿  12. ∀ establishedEvent.⊤
	   3	    9	 1292		 +0.000000e+00
﻿  13. Absentee109757653
	   1	    0	    5		 ﻿+2.106696e+00
﻿  14. ∀ wikiPageExternalLink.⊤
	   3	    9	 1292		 +0.000000e+00
﻿  15. ∀ keyPerson.⊤
	   3	    9	 1292		 +0.000000e+00
﻿  16. Actor109765278
	   2	    1	   61		 ﻿+2.561360e+00
﻿  17. ∀ house.⊤
	   3	    9	 1292		 +0.000000e+00
﻿  18. Actor109765278
	   2	    1	   61		 +2.561360e+00
﻿  19. ∀ languages.⊤
	   3	    9	 1292		 +0.000000e+00
﻿************ best: 8.349834e+00	 ¬Massachusetts
﻿
Specialization, covering P:3 N:0 U:0
¬Massachusetts


Disjunct, covering P:3 N:0 U:0
¬Massachusetts

﻿
 FINAL: (Actor109765278 ⊓ ((¬WikicatPeopleOfCalabrianDescent) ⊓ (∃ deathCause.⊤))) ⊔ (¬Massachusetts)

induced for target #0:

Acquirer109764201 


﻿

 |||||||||||||||||||||||||||||||||||||||||||||||||||||||||| OUTCOMES FOLD #5
Algorithm: class it.uniba.di.lacam.ml.dlfoil.CEClassificationModel

  TargetC#   matching commission   omission  induction  precision     recall
﻿        0.      0.993      0.000      0.007      0.000      1.000      1.000
----------------------------------------------------------------------------------------------
  AVERAGES      0.993      0.000      0.007      0.000      1.000      1.000﻿


Fold #6 **************************************************************************************************
#training examples 1306 - fold: 6

﻿--------- Target Concept #0 
Acquirer109764201﻿

Learning problem prepared.
﻿
 Problem	 p:5	 n:10	 u:1291	
Subproblem ------------------------------------------

Specializing ⊤
 5	 10	 1291
﻿   0. WikicatPeopleFromTheBronx
	   1	    0	    1		 ﻿+1.378522e+00 <--- current BEST
﻿   1. WikicatUnitedStatesArmyAirForcesSoldiers
	   1	    0	    0		 ﻿+1.495515e+00 <--- current BEST
﻿   2. ∀ format.⊤
	   5	   10	 1291		 ﻿+0.000000e+00
﻿   3. ¬Massachusetts
	   5	    0	    0		 ﻿+7.767081e+00 <--- current BEST
﻿   4. ∀ hypernym.⊤
	   5	   10	 1291		 ﻿+0.000000e+00
﻿   5. ∀ service.⊤
	   5	   10	 1291		 +0.000000e+00
﻿   6. WikicatPeopleFromTheBronx
	   1	    0	    1		 ﻿+1.378522e+00
﻿   7. Michigan
	   1	    0	    0		 ﻿+1.495515e+00
﻿   8. WikicatPhillipsAcademyAlumni
	   1	    0	    0		 ﻿+1.495515e+00
﻿   9. ∃ occupation.⊤
	   4	    2	   56		 ﻿+3.268206e+00
﻿  10. WikicatUnitedStatesArmyAirForcesSoldiers
	   1	    0	    0		 ﻿+1.495515e+00
﻿  11. NewYork
	   1	    0	   ﻿ 0		 +1.495515e+00
﻿  12. WikicatUnitedStatesArmyAirForcesSoldiers
	   1	    0	    0		 ﻿+1.495515e+00
﻿  13. WikicatUnitedStatesArmyAirForcesSoldiers
	   1	    0	    0		 ﻿+1.495515e+00
﻿  14. Michigan
	   1	    0	    0		 ﻿+1.495515e+00
﻿  15. ∀ foundedBy.⊤
	   5	   10	 1291		 +0.000000e+00
﻿  16. ∀ owner.⊤
	   5	   10	 1291		 +0.000000e+00
﻿  17. Illinois
	   1	    0	    0		 ﻿+1.495515e+00
﻿  18. Absentee109757653
	   1	    0	    6		 ﻿+1.095515e+00
﻿  19. NewYork
	   1	    0	    0		 ﻿+1.495515e+00
************ best: 7.767081e+00	 ¬Massachusetts
﻿
Specialization, covering P:5 N:0 U:0
¬Massachusetts


Disjunct, covering P:5 N:0 U:0
¬Massachusetts

﻿
 FINAL: ¬Massachusetts

induced for target #0:

Acquirer109764201 


﻿

 |||||||||||||||||||||||||||||||||||||||||||||||||||||||||| OUTCOMES FOLD #6
Algorithm: class it.uniba.di.lacam.ml.dlfoil.CEClassificationModel

  TargetC#   matching commission   omission  induction  precision     recall
﻿        0.      1.000      0.000      0.000      0.000      1.000      1.000
----------------------------------------------------------------------------------------------
﻿  AVERAGES      1.000      0.000      0.000      0.000      1.000      1.000


Fold #7 **************************************************************************************************
#training examples 1306 - fold: 7

﻿--------- Target Concept #0 
Acquirer109764201﻿

Learning problem prepared.
﻿
 Problem	 p:5	 n:9	 u:1292	
Subproblem ------------------------------------------

Specializing ⊤
 5	 9	 1292
   0. WikicatTranscendentalMeditationPractitioners
	   1	    1	    1		 +1.295515e+00 <--- current BEST
﻿   1. ∀ collaborator.⊤
	   5	    9	 1292		 +0.000000e+00
﻿   2. ∀ starring.⊤
	   5	    9	 1292		 +0.000000e+00
﻿   3. ∀ url.⊤
	   5	    9	 1292		 +0.000000e+00
﻿   4. ∀ birthPlace.⊤
	   5	    9	 1292		 +0.000000e+00
﻿   5. ∀ country.⊤
	   5	    9	 1292		 +0.000000e+00
﻿   6. ∀ children.⊤
	   5	    9	 1292		 +0.000000e+00
﻿   7. ∀ foundationPlace.⊤
	   5	    9	 1292		 +0.000000e+00
﻿   8. WikicatPhillipsAcademyAlumni
	   1	    0	    0		 ﻿+1.495515e+00 <--- current BEST
﻿   9. ∀ starring.⊤
	   5	    9	 1292		 +0.000000e+00
﻿  10. WikicatPeopleFromTheBronx
	   1	    0	   ﻿ 1		 +1.378522e+00
﻿  11. ∀ languages2Type.⊤
	   5	    9	 1292		 ﻿+0.000000e+00
﻿  12. ∀ currency.⊤
	   5	    9	 1292		 +0.000000e+00
﻿  13. ∀ subsidiary.⊤
	   5	    9	 1292		 +0.000000e+00
﻿  14. Illinois
	   1	    0	    0		 +1.495515e+00
﻿  15. WikicatPhillipsAcademyAlumni
	   1	    0	    0		 ﻿+1.495515e+00
﻿  16. Michigan
	   1	    0	    0		 +1.495515e+00
﻿  17. NewYork
	   1	    0	    0		 ﻿+1.495515e+00
﻿  18. WikicatPeopleFromTheBronx
	   1	    0	    1		 ﻿+1.378522e+00
﻿  19. Person
	   5	    2	  144		 +3.104116e+00 <--- current BEST
************ best: 3.104116e+00	 Person
﻿
Specialization, covering P:5 N:2 U:144
Person


Specializing Person
 5	 2	 144
﻿   0. Person ⊓ (∀ editing.⊤)
	   5	    2	  144		 +0.000000e+00
﻿   1. Person ⊓ (∀ producer.⊤)
	   5	    2	  144		 +0.000000e+00
﻿   2. Person ⊓ (∀ religion.⊤)
	   5	    2	  144		 +0.000000e+00
﻿   3. Person ⊓ (∀ rev.⊤)
	   5	    2	  144		 +0.000000e+00
﻿   4. Person ⊓ (∀ agent.⊤)
	   5	    2	  144		 +0.000000e+00
﻿   5. Person ⊓ (∀ spouse.⊤)
	   5	    2	  144		 +0.000000e+00
﻿   6. Person ⊓ (∀ parents.⊤)
	   5	    2	  144		 +0.000000e+00
﻿   7. Person ⊓ (∀ parents.⊤)
	   5	    2	  144		 +0.000000e+00
﻿   8. Massachusetts ⊓ Person
	   1	    0	    0		 ﻿+8.746917e-01 <--- current BEST
﻿   9. Person ⊓ (∀ deputy.⊤)
	   5	    2	  144		 ﻿+0.000000e+00
﻿  10. Person ⊓ (∀ division.⊤)
	   5	    2	  144		 +0.000000e+00
﻿  11. Person ⊓ (∀ url.⊤)
	   5	    2	  144		 ﻿+0.000000e+00
﻿  12. Person ⊓ (∀ thumbnail.⊤)
	   5	    2	  144		 +0.000000e+00
﻿  13. Person ⊓ (∀ hometown.⊤)
	   5	    2	  144		 +0.000000e+00
﻿  14. WikicatPeopleFromSuchaBeskidzka ⊓ Person
	   1	    0	    0		 ﻿+8.746917e-01
﻿  15. Person ⊓ (¬Massachusetts)
	   5	    0	    0		 ﻿+4.662965e+00 <--- current BEST
﻿  16. Person ⊓ (∀ associatedMusicalArtist.⊤)
	   5	    2	  144		 ﻿+0.000000e+00
﻿  17. Person ⊓ (∀ party.⊤)
	   5	    2	  144		 +0.000000e+00
﻿  18. Person ⊓ (∀ distributor.⊤)
	   5	    2	  144		 +0.000000e+00
﻿  19. Person ⊓ (∀ influenced.⊤)
	   5	    2	  144		 +0.000000e+00
﻿************ best: 4.662965e+00	 Person ⊓ (¬Massachusetts)
﻿
Specialization, covering P:5 N:0 U:0
﻿Person ⊓ (¬Massachusetts)


Disjunct, covering P:5 N:0 U:0
Person ⊓ (¬Massachusetts)

﻿
 FINAL: Person ⊓ (¬Massachusetts)

induced for target #0:

Acquirer109764201 


﻿

 |||||||||||||||||||||||||||||||||||||||||||||||||||||||||| OUTCOMES FOLD #7
Algorithm: class it.uniba.di.lacam.ml.dlfoil.CEClassificationModel
﻿
  TargetC#   matching commission   omission  induction  precision     recall
        0.      0.993      0.000      0.007      0.000      1.000      1.000
----------------------------------------------------------------------------------------------
  AVERAGES      0.993      0.000      0.007      0.000      1.000      1.000


Fold #8 **************************************************************************************************
#training examples 1306 - fold: 8

--------- Target Concept #0 
Acquirer109764201﻿

Learning problem prepared.
﻿
 Problem	 p:3	 n:8	 u:1295	
Subproblem ------------------------------------------

Specializing ⊤
 3	 8	 1295
﻿   0. ∀ knownFor.⊤
	   3	    8	 1295		 +0.000000e+00
﻿   1. Person
	   3	    2	  147﻿		 +3.094656e+00 <--- current BEST
﻿   2. WikicatTranscendentalMeditationPractitioners
	   1	    1	    1		 +2.376550e+00
﻿   3. ∃ birthPlace.⊤
	   3	    2	   84		 ﻿+3.860190e+00 <--- current BEST
﻿   4. ∀ house.⊤
	   3	    8	 1295		 +0.000000e+00
﻿   5. ∀ ethnicGroup.⊤
	   3	    8	 1295		 +0.000000e+00
﻿   6. ∀ writer.⊤
	   3	    8	 1295		 +0.000000e+00
﻿   7. ∀ writer.⊤
	   3	    8	 1295		 +0.000000e+00
﻿   8. WikicatPeopleFromSuchaBeskidzka
	   1	    0	    0		 ﻿+2.709884e+00
﻿   9. ∀ commonLanguages.⊤
	   3	    8	 1295		 +0.000000e+00
﻿  10. ∀ leaderParty.⊤
	   3	    8	 1295		 +0.000000e+00
﻿  11. Person
	   3	    2	  147		 ﻿+3.094656e+00
﻿  12. ∀ founders.⊤
	   3	    8	 1295		 +0.000000e+00
﻿  13. Massachusetts
	   1	    0	    0		 +2.709884e+00
﻿  14. Absentee109757653
	   1	    0	    6		 ﻿+2.043217e+00
﻿  15. ∀ genre.⊤
	   3	    8	 1295		 +0.000000e+00
﻿  16. Person
	   3	    2	  147		 +3.094656e+00
﻿  17. WikicatPeopleFromSuchaBeskidzka
	   1	    0	    0		 ﻿+2.709884e+00
﻿  18. Massachusetts
	   1	    0	    0		 +2.709884e+00
﻿  19. ∀ locationCountry.⊤
	   3	    8	 1295		 +0.000000e+00
************ best: ﻿3.860190e+00	 ∃ birthPlace.⊤
﻿
Specialization, covering P:3 N:2 U:84
∃ birthPlace.⊤


Specializing ∃ birthPlace.⊤
 3	 2	 84
﻿   0. (∃ birthPlace.⊤) ⊓ (∃ wikiPageExternalLink.⊤)
	   3	    2	   56		 +5.376568e-01 <--- current BEST
﻿   1. (∃ birthPlace.⊤) ⊓ (∀ almaMater.⊤)
	   3	    2	   84		 ﻿+0.000000e+00
﻿   2. ∃ birthPlace.Abstraction100002137
	   1	    2	   21		 +2.085348e-01
﻿   3. (∃ birthPlace.⊤) ⊓ (∀ location.⊤)
	   3	    2	   84		 +0.000000e+00
﻿   4. (∃ birthPlace.⊤) ⊓ (∃ parent.⊤)
	   1	    1	    6		 ﻿+6.998452e-01 <--- current BEST
﻿   5. (∃ birthPlace.⊤) ⊓ (∀ house.⊤)
	   3	    2	  ﻿ 84		 +0.000000e+00
﻿   6. (∃ birthPlace.⊤) ⊓ (∀ officialLanguage.⊤)
	   3	    2	   84		 ﻿+0.000000e+00
﻿   7. (∃ birthPlace.⊤) ⊓ (∀ child.⊤)
	   3	    2	   84		 +0.000000e+00
﻿   8. (∃ birthPlace.⊤) ⊓ (∀ logo.⊤)
	   3	    2	   84		 +0.000000e+00
﻿   9. (∃ birthPlace.⊤) ⊓ (∀ location.⊤)
	   3	    2	   84		 +0.000000e+00
﻿  10. (∃ birthPlace.⊤) ⊓ (∀ knownFor.⊤)
	   3	    2	   84		 +0.000000e+00
﻿  11. ∃ birthPlace.(∀ service.⊤)
	   3	    2	   84		 +0.000000e+00
﻿  12. (¬WikicatPhotoArchives) ⊓ (∃ birthPlace.⊤)
	   3	    0	    0		 ﻿+4.491853e+00 <--- current BEST
﻿  13. WikicatUnitedStatesNavyOfficers ⊓ (∃ birthPlace.⊤)
	   1	    0	    0		 ﻿+1.423154e+00
﻿  14. (∃ birthPlace.⊤) ⊓ (∀ format.⊤)
	   3	    2	   84		 +0.000000e+00
﻿  15. ∃ birthPlace.(∀ timeZone.⊤)
	   3	    2	   84		 +0.000000e+00
﻿  16. (∃ birthPlace.⊤) ⊓ (∀ title.⊤)
	   3	    2	   84		 +0.000000e+00
﻿  17. (∃ birthPlace.⊤) ⊓ (∀ children.⊤)
	   3	    2	   84		 +0.000000e+00
﻿  18. (∃ birthPlace.⊤) ⊓ (∀ adslServ.⊤)
	   3	    2	   84		 +0.000000e+00
﻿  19. ∃ birthPlace.(∀ affiliation.⊤)
	   3	    2	   84		 ﻿+0.000000e+00
************ best: 4.491853e+00	 (¬WikicatPhotoArchives) ⊓ (∃ birthPlace.⊤)
﻿
Specialization, covering P:3 N:0 U:0
(¬WikicatPhotoArchives) ⊓ (∃ birthPlace.⊤)


Disjunct, covering P:3 N:0 U:0
﻿(¬WikicatPhotoArchives) ⊓ (∃ birthPlace.⊤)

﻿
 FINAL: (¬WikicatPhotoArchives) ⊓ (∃ birthPlace.⊤)

induced for target #0:

Acquirer109764201 


﻿

 |||||||||||||||||||||||||||||||||||||||||||||||||||||||||| OUTCOMES FOLD #8
Algorithm: class it.uniba.di.lacam.ml.dlfoil.CEClassificationModel

  TargetC#   matching commission   omission  induction  precision     recall
﻿        0.      0.979      0.000      0.021      0.000      1.000      0.667
----------------------------------------------------------------------------------------------
  AVERAGES      0.979      0.000      0.021      0.000      1.000      0.667


Fold #9 **************************************************************************************************
#training examples 1314 - fold: 9

--------- Target Concept #0 
Acquirer109764201﻿

Learning problem prepared.

 Problem	 p:4	 n:9	 u:1301	
﻿Subproblem ------------------------------------------

Specializing ⊤
 4	 9	 1301
﻿   0. ∀ languages.⊤
	   4	    9	 1301		 ﻿+0.000000e+00
﻿   1. ∀ associatedBand.⊤
	   4	    9	 1301		 +0.000000e+00
﻿   2. ∀ starring.⊤
	   4	    9	 1301		 +0.000000e+00
﻿   3. ∀ author.⊤
	   4	    9	 1301		 +0.000000e+00
﻿   4. WikicatTranscendentalMeditationPractitioners
	   1	    0	 ﻿   1		 +1.797731e+00 <--- current BEST
﻿   5. ∀ url.⊤
	   4	    9	 1301		 +0.000000e+00
﻿   6. WikicatMusicVideoDirectors
	   1	    0	    0		 ﻿+1.943971e+00 <--- current BEST
﻿   7. ∀ establishedEvent.⊤
	   4	    9	 1301		 +0.000000e+00
﻿   8. WikicatMusicVideoDirectors
	   1	    0	    0		 ﻿+1.943971e+00
﻿   9. ∀ associatedBand.⊤
	   4	    9	 1301		 +0.000000e+00
﻿  10. ∀ before.⊤
	   4	    9	 1301		 +0.000000e+00
﻿  11. ∀ spouse.⊤
	   4	    9	 1301		 +0.000000e+00
﻿  12. Absentee109757653
	   1	    0	   ﻿ 6		 +1.443971e+00
﻿  13. ∀ parents.⊤
	   4	    9	 1301		 +0.000000e+00
﻿  14. Illinois
	   1	    0	    0		 ﻿+1.943971e+00
﻿  15. ∀ occupation.⊤
	   4	    9	 1301		 +0.000000e+00
﻿  16. WikicatTranscendentalMeditationPractitioners
	   1	    0	    1		 ﻿+1.797731e+00
﻿  17. ∃ wikiPageExternalLink.⊤
	   3	    2	   77		 ﻿+2.717428e+00 <--- current BEST
﻿  18. WikicatMusicVideoDirectors
	   1	    0	    0		 ﻿+1.943971e+00
﻿  19. Illinois
	   1	    0	    0		 ﻿+1.943971e+00
************ best: 2.717428e+00	 ∃ wikiPageExternalLink.⊤
﻿
Specialization, covering P:3 N:2 U:77
∃ wikiPageExternalLink.⊤


Specializing ∃ wikiPageExternalLink.⊤
 3	 2	 77
﻿   0. ∃ wikiPageExternalLink.(∀ stateOfOrigin.⊤)
	   3	    2	   77		 +0.000000e+00
﻿   1. ∃ wikiPageExternalLink.(∀ residence.⊤)
	   3	    2	   77		 +0.000000e+00
﻿   2. (∃ wikiPageExternalLink.⊤) ⊓ (∀ children.⊤)
	   3	    2	   77		 +0.000000e+00
﻿   3. (∃ wikiPageExternalLink.⊤) ⊓ (∀ capital.⊤)
	   3	    2	   77		 +0.000000e+00
﻿   4. (∃ wikiPageExternalLink.⊤) ⊓ (∀ author.⊤)
	   3	    2	   77		 +0.000000e+00
﻿   5. (∃ wikiPageExternalLink.⊤) ⊓ (∀ rev.⊤)
	   3	    2	   77		 +0.000000e+00
﻿   6. (∃ wikiPageExternalLink.⊤) ⊓ (∀ product.⊤)
	   3	    2	   77		 +0.000000e+00
﻿   7. (∃ wikiPageExternalLink.⊤) ⊓ (∀ relative.⊤)
	   3	    2	   77		 +0.000000e+00
﻿   8. (∃ religion.⊤) ⊓ (∃ wikiPageExternalLink.⊤)
	   1	    0	    1		 ﻿+1.189228e+00 <--- current BEST
﻿   9. (∃ wikiPageExternalLink.⊤) ⊓ (∀ service.⊤)
	   3	    2	   77		 +0.000000e+00
﻿  10. (∃ wikiPageExternalLink.⊤) ⊓ (∀ awards.⊤)
	   3	    2	   ﻿77		 +0.000000e+00
﻿  11. Person ⊓ (∃ wikiPageExternalLink.⊤)
	   3	    1	   56		 +4.443021e-01
﻿  12. (∃ wikiPageExternalLink.⊤) ⊓ (∀ owner.⊤)
	   3	    2	   77		 +0.000000e+00
﻿  13. ∃ wikiPageExternalLink.(∀ awards.⊤)
	   3	    2	   77		 +0.000000e+00
﻿  14. (∃ wikiPageExternalLink.⊤) ⊓ (∀ parents.⊤)
	﻿   3	    2	   77		 +0.000000e+00
﻿  15. WikicatUnitedStatesArmyAirForcesSoldiers ⊓ (∃ wikiPageExternalLink.⊤)
	   1	    0	  ﻿  0		 +1.384216e+00 <--- current BEST
﻿  16. (∃ wikiPageExternalLink.⊤) ⊓ (∀ rector.⊤)
	   3	    2	   77		 +0.000000e+00
﻿  17. ∃ wikiPageExternalLink.(∀ parent.⊤)
	   3	    2	   77		 +0.000000e+00
﻿  18. (∃ wikiPageExternalLink.⊤) ⊓ (∀ soundRecording.⊤)
	   3	    2	   77		 +0.000000e+00
﻿  19. (∃ wikiPageExternalLink.⊤) ⊓ (∀ broadcastNetwork.⊤)
	   3	    2	   77		 +0.000000e+00
﻿************ best: 1.384216e+00	 WikicatUnitedStatesArmyAirForcesSoldiers ⊓ (∃ wikiPageExternalLink.⊤)
﻿
Specialization, covering P:1 N:0 U:0
WikicatUnitedStatesArmyAirForcesSoldiers ⊓ (∃ wikiPageExternalLink.⊤)


Disjunct, covering P:1 N:0 U:0
WikicatUnitedStatesArmyAirForcesSoldiers ⊓ (∃ wikiPageExternalLink.⊤)

﻿Subproblem ------------------------------------------

Specializing ⊤
 3	 9	 1301
﻿   0. ∀ house.⊤
	   3	    9	 1301		 +0.000000e+00
﻿   1. WikicatMusicVideoDirectors
	   1	    0	    0		 ﻿+2.712452e+00 <--- current BEST
﻿   2. WikicatPeopleFromSuchaBeskidzka
	   1	    0	    0		 ﻿+2.712452e+00
﻿   3. WikicatPeopleFromNewYork
	   2	    0	    4		 ﻿+4.711312e+00 <--- current BEST
﻿   4. WikicatPeopleFromTheBronx
	   1	    0	    1		 ﻿+2.517465e+00
﻿   5. ∃ thumbnail.⊤
	   2	    2	   73		 ﻿+2.392614e+00
﻿   6. ∀ eventEnd.⊤
	   3	    9	 1301		 +0.000000e+00
﻿   7. WikicatPeopleFromSuchaBeskidzka
	   1	    0	    0		 ﻿+2.712452e+00
﻿   8. ∀ division.⊤
	   3	    9	 1301		 +0.000000e+00
﻿   9. NewYork
	   1	    0	    0		 ﻿+2.712452e+00
﻿  10. ∀ content.⊤
	   3	    9	 1301		 +0.000000e+00
﻿  11. ∀ residence.⊤
	   3	    9	 1301		 +0.000000e+00
﻿  12. ∃ birthPlace.⊤
	   2	    1	   80		 ﻿+2.321337e+00
﻿  13. ∀ commonLanguages.⊤
	   3	    9	 1301		 +0.000000e+00
﻿  14. NewYork
	   1	    0	    0		 +2.712452e+00
﻿  15. ∀ caption.⊤
	   3	    9	 1301		 +0.000000e+00
﻿  16. ∀ leader.⊤
	   3	    9	 1301		 +0.000000e+00
﻿  17. ∀ birthPlace.⊤
	   3	    9	 1301		 +0.000000e+00
﻿  18. ∀ religion.⊤
	   3	    9	 1301		 +0.000000e+00
﻿  19. Actor109765278
	   2	    1	   60		 ﻿+2.582882e+00
************ best: 4.711312e+00	 WikicatPeopleFromNewYork
﻿
Specialization, covering P:2 N:0 U:4
WikicatPeopleFromNewYork


Specializing WikicatPeopleFromNewYork
 2	 0	 4
﻿   0. WikicatPeopleFromNewYork ⊓ (∀ eventEnd.⊤)
	   2	    0	    4		 +0.000000e+00
﻿   1. WikicatPeopleFromNewYork ⊓ (¬Act100030358)
	   2	    0	    0		 ﻿+1.222392e+00 <--- current BEST
﻿   2. WikicatPeopleFromNewYork ⊓ (∀ titleDeputy.⊤)
	   2	    0	    4		 +0.000000e+00
﻿   3. WikicatPeopleFromNewYork ⊓ (∀ honorificSuffix.⊤)
	   2	    0	    4		 +0.000000e+00
﻿   4. WikicatPeopleFromNewYork ⊓ (∃ hypernym.⊤)
	   1	    0	    4		 ﻿-2.572866e-01
﻿   5. WikicatPeopleFromNewYork ⊓ (∀ associatedBand.⊤)
	   2	    0	    4		 +0.000000e+00
﻿   6. WikicatPeopleFromNewYork ⊓ (∀ cinematography.⊤)
	   2	    0	    4		 +0.000000e+00
﻿   7. WikicatPeopleFromNewYork ⊓ (∀ owningCompany.⊤)
	   2	    0	    4		 +0.000000e+00
﻿   8. WikicatPeopleFromNewYork ⊓ (∀ languagesType.⊤)
	   2	    0	    4		 +0.000000e+00
﻿   9. WikicatPeopleFromNewYork ⊓ (∀ languages.⊤)
	   2	    0	    4		 ﻿+0.000000e+00
﻿  10. WikicatPeopleFromNewYork ⊓ WikicatStageActors
	   1	    0	    0		 ﻿+5.351947e-01
﻿  11. WikicatPeopleFromNewYork ⊓ (∀ pictureFormat.⊤)
	   2	    0	    4		 +0.000000e+00
﻿  12. WikicatPeopleFromNewYork ⊓ (∀ soundRecording.⊤)
	   2	    0	    4		 +0.000000e+00
﻿  13. WikicatPeopleFromNewYork ⊓ (∀ officialLanguage.⊤)
	   2	    0	    4		 +0.000000e+00
﻿  14. WikicatPeopleFromNewYork ⊓ (∀ occupation.⊤)
	   2	    0	    4		 +0.000000e+00
﻿  15. WikicatPeopleFromNewYork ⊓ (∀ producer.⊤)
	   2	    0	    4		 +0.000000e+00
﻿  16. WikicatPeopleFromNewYork ⊓ (∀ caption.⊤)
	   2	    0	    4		 +0.000000e+00
﻿  17. WikicatPeopleFromNewYork ⊓ (∀ affiliation.⊤)
	   2	    0	    4		 ﻿+0.000000e+00
﻿  18. WikicatPeopleFromNewYork ⊓ (∀ industry.⊤)
	   2	    0	    4		 +0.000000e+00
﻿  19. WikicatPeopleFromNewYork ⊓ (∀ leaderParty.⊤)
	   2	    0	    4		 +0.000000e+00
﻿************ best: 1.222392e+00	 WikicatPeopleFromNewYork ⊓ (¬Act100030358)
﻿
Specialization, covering P:2 N:0 U:0
WikicatPeopleFromNewYork ⊓ (¬Act100030358)


Disjunct, covering P:2 N:0 U:0
WikicatPeopleFromNewYork ⊓ (¬Act100030358)

﻿Subproblem ------------------------------------------

Specializing ⊤
 1	 9	 1301
﻿   0. ∀ family.⊤
	   1	    9	 1301		 +0.000000e+00
﻿   1. ∀ governmentType.⊤
	   1	    9	 1301		 +0.000000e+00
﻿   2. ∀ thumbnail.⊤
	   1	    9	 1301		 +0.000000e+00
﻿   3. ∀ rector.⊤
	   1	    9	 1301		 +0.000000e+00
﻿   4. Absentee109757653
	   1	    0	    6		 ﻿+7.357552e+00 <--- current BEST
﻿   5. ∀ currency.⊤
	   1	    9	 1301		 +0.000000e+00
﻿   6. ∀ extra.⊤
	   1	    9	 1301		 +0.000000e+00
﻿   7. ∀ relation.⊤
	   1	    9	 1301		 +0.000000e+00
﻿   8. ∀ producer.⊤
	   1	    9	 1301		 +0.000000e+00
﻿   9. ∀ rights.⊤
	   1	    9	 1301		 +0.000000e+00
﻿  10. ∀ collaborator.⊤
	   1	    9	 1301		 +0.000000e+00
﻿  11. ∀ director.⊤
	   1	    9	 1301		 +0.000000e+00
﻿  12. Absentee109757653
	   1	    0	    6		 ﻿+7.357552e+00
﻿  13. ∀ productionCompanies.⊤
	   1	    9	 1301		 +0.000000e+00
﻿  14. ∀ awards.⊤
	   1	    9	 1301		 +0.000000e+00
﻿  15. ∀ currency.⊤
	   1	    9	 1301		 +0.000000e+00
﻿  16. ∀ thumbnail.⊤
	   1	    9	 1301		 ﻿+0.000000e+00
﻿  17. Absentee109757653
	   1	    0	    6		 ﻿+7.357552e+00
﻿  18. ∀ hometown.⊤
	   1	    9	 1301		 +0.000000e+00
﻿  19. ∀ capital.⊤
	   1	    9	 1301		 +0.000000e+00
﻿************ best: 7.357552e+00	 Absentee109757653
﻿
Specialization, covering P:1 N:0 U:6
Absentee109757653


Specializing Absentee109757653
 1	 0	 6
﻿ ﻿  0. Absentee109757653 ⊓ (∀ extra.⊤)
	   1	    0	    6		 +0.000000e+00
﻿   1. Absentee109757653 ⊓ (∀ upperHouse.⊤)
	   1	    0	    6		 +0.000000e+00
﻿   2. Absentee109757653 ⊓ (∀ part.⊤)
	   1	    0	    6		 +0.000000e+00
﻿   3. Absentee109757653 ⊓ (∀ predecessor.⊤)
	   1	    0	    6		 +0.000000e+00
﻿   4. Absentee109757653 ⊓ (∀ agent.⊤)
	   1	    0	    6		 ﻿+0.000000e+00
﻿   5. Absentee109757653 ⊓ (∀ recordLabel.⊤)
	   1	    0	    6		 ﻿+0.000000e+00
﻿   6. Absentee109757653 ⊓ (¬Act100030358)
	   1	    0	    0		 ﻿+2.000000e+00 <--- current BEST
﻿   7. Absentee109757653 ⊓ (¬WikicatPhotoArchives)
	   1	    0	    0		 ﻿+2.000000e+00
﻿   8. Absentee109757653 ⊓ (∀ language.⊤)
	   1	    0	    6		 +0.000000e+00
﻿   9. Absentee109757653 ⊓ (∃ hypernym.⊤)
	   1	    0	    4		 ﻿+4.150375e-01
﻿  10. Absentee109757653 ⊓ (∀ partner.⊤)
	   1	    0	    6		 +0.000000e+00
﻿  11. Absentee109757653 ⊓ (∀ hypernym.⊤)
	   1	    0	    6		 +0.000000e+00
﻿  12. Absentee109757653 ⊓ (∀ establishedEvent.⊤)
	   1	    0	    6		 +0.000000e+00
﻿  13. Absentee109757653 ⊓ (∀ parent.⊤)
	   1	    0	    6		 ﻿+0.000000e+00
﻿  14. Absentee109757653 ⊓ (∀ pictureFormat.⊤)
	   1	    0	    6		 +0.000000e+00
﻿  15. Absentee109757653 ⊓ (∀ foundedBy.⊤)
	   1	    0	    6		 +0.000000e+00
﻿  16. Absentee109757653 ⊓ (∀ party.⊤)
	   1	    0	    6		 +0.000000e+00
﻿ ﻿ ﻿17﻿. ﻿Absentee109757653 ⊓ (∀ hometown.⊤)﻿
	﻿   1	    0	    6		 +0.000000e+00
﻿  18. Absentee109757653 ⊓ (∀ location.⊤)
	   1	    0	    6		 +0.000000e+00
﻿  19. Absentee109757653 ⊓ (∀ instrument.⊤)
	   1	    0	    6		 ﻿+0.000000e+00
************ best: 2.000000e+00	 Absentee109757653 ⊓ (¬Act100030358)
﻿
Specialization, covering P:1 N:0 U:0
﻿Absentee109757653 ⊓ (¬Act100030358)


Disjunct, covering P:1 N:0 U:0
Absentee109757653 ⊓ (¬Act100030358)

﻿
 FINAL: (Absentee109757653 ⊓ (¬Act100030358)) ⊔ (WikicatPeopleFromNewYork ⊓ (¬Act100030358)) ⊔ (WikicatUnitedStatesArmyAirForcesSoldiers ⊓ (∃ wikiPageExternalLink.⊤))

induced for target #0:

Acquirer109764201 


﻿

 |||||||||||||||||||||||||||||||||||||||||||||||||||||||||| OUTCOMES FOLD #9
Algorithm: class it.uniba.di.lacam.ml.dlfoil.CEClassificationModel

  TargetC#   matching commission   omission  induction  precision     recall
﻿        0.      0.986      0.000      0.014      0.000      1.000      0.500
----------------------------------------------------------------------------------------------
  AVERAGES      0.986      0.000      0.014      0.000      1.000      0.500



 @@@@@@@@@@@@@@@@@@@@@@@@@@@@@@@@@@@@@@@@@@@@@@@@@@@@@@@@@@@@@@@ OVERALL OUTCOMES

  TargetC#   matching commission   omission  induction  precision     recall
         0 ﻿     0.992      0.000      0.008      0.000      1.000      0.917 
----------------------------------------------------------------------------------------------
﻿  AVERAGES      0.992      0.000      0.008      0.000      1.000      0.917 	 F-measure: ﻿     0.957
﻿

END: file:////C:/Users/Giuseppe/Desktop/yago5.owl﻿	 Seed: 1